 E in E0, L in L0, L_z in L0
 24.30228591,  0.51398159,  0.51395428
 33.98907608,  0.33372288,  0.32021848
 38.99089474,  0.22618873,  0.22018211
 41.55013196,  0.17123865,  0.16899736
 41.54705036,  0.17151002,  0.16905899
 43.40697356,  0.13669803,  0.13186053
 41.62818565,  0.16770383,  0.16743629
 40.90065307,  0.18199041,  0.18198694
 43.19503280,  0.14232233,  0.13609934
 42.18177446,  0.15845674,  0.15636451
 40.45943747,  0.19193155,  0.19081125
 40.92130206,  0.18246391,  0.18157396
 37.89626771,  0.24209983,  0.24207465
 40.93946058,  0.18876878,  0.18121079
 37.69149832,  0.25414808,  0.24617003
 38.40855853,  0.23371455,  0.23182883
 38.51569558,  0.23157038,  0.22968609
 38.55910766,  0.23271601,  0.22881785
 41.11589484,  0.19298622,  0.17768210
 40.99282993,  0.18083718,  0.18014340
 42.58574109,  0.15029987,  0.14828518
 41.96694486,  0.16961180,  0.16066110
 41.27576980,  0.18217800,  0.17448460
 41.53742904,  0.17123388,  0.16925142
 42.17045120,  0.15663484,  0.15659098
 44.99219852,  0.12950224,  0.10015603
 42.03367536,  0.17600932,  0.15932649
 37.36759653,  0.25278583,  0.25264807
 38.81627895,  0.22411038,  0.22367442
 42.33789571,  0.15384520,  0.15324209
 40.94064745,  0.20360122,  0.18118705
 42.33544569,  0.16319992,  0.15329109
 41.92163814,  0.16270392,  0.16156724
 41.70520950,  0.19359013,  0.16589581
 40.52223536,  0.18955873,  0.18955529
 40.30057061,  0.19652525,  0.19398859
 39.57452065,  0.22118546,  0.20850959
 40.06041137,  0.21099584,  0.19879177
 42.65162072,  0.14888939,  0.14696759
 43.99925317,  0.12115121,  0.12001494
 38.12840485,  0.23846810,  0.23743190
 38.84791512,  0.23639471,  0.22304170
 40.21437807,  0.19578024,  0.19571244
 44.45135318,  0.11109031,  0.11097294
 39.29630207,  0.22075194,  0.21407396
 35.83584360,  0.28365863,  0.28328313
 37.46522890,  0.25166006,  0.25069542
 39.71801507,  0.20712433,  0.20563970
 39.82708733,  0.20557638,  0.20345825
 40.16606598,  0.19763984,  0.19667868
 43.60490781,  0.14501585,  0.12790184
 43.62243463,  0.16269436,  0.12755131
 43.18370960,  0.13712382,  0.13632581
 42.64701614,  0.15144446,  0.14705968
 42.07185119,  0.16072038,  0.15856298
 42.17438369,  0.16880974,  0.15651233
 39.50779003,  0.21027777,  0.20984420
 39.94224658,  0.20255757,  0.20115507
 40.02747157,  0.19953451,  0.19945057
 37.59141585,  0.25799887,  0.24817168
 39.37658641,  0.22469504,  0.21246827
 42.44224671,  0.15170474,  0.15115507
 41.06758270,  0.18429775,  0.17864835
 38.25352157,  0.23695572,  0.23492957
 38.35137330,  0.23321462,  0.23297253
 39.65782439,  0.21627327,  0.20684351
 42.15288377,  0.16274026,  0.15694232
 42.21682825,  0.16265647,  0.15566343
 42.75682266,  0.14562985,  0.14486355
 39.15525763,  0.21691916,  0.21689485
 40.73075858,  0.19250875,  0.18538483
 41.89638460,  0.17180039,  0.16207231
 41.98565877,  0.16117613,  0.16028682
 40.91914757,  0.19225623,  0.18161705
 39.19161507,  0.24038643,  0.21616770
 39.85137333,  0.25385120,  0.20297253
 40.72273636,  0.19630565,  0.18554527
 44.92023192,  0.10174837,  0.10159536
 43.62585225,  0.12827413,  0.12748295
 42.31019207,  0.15899025,  0.15379616
 46.52116533,  0.12111645,  0.06957669
 43.05313736,  0.13899523,  0.13893725
 41.85884017,  0.16318237,  0.16282320
 40.78646138,  0.20733031,  0.18427077
 44.68349032,  0.10871213,  0.10633019
 43.27970236,  0.13454385,  0.13440595
 42.36441243,  0.17635141,  0.15271175
 42.64371516,  0.16332869,  0.14712570
 41.38836231,  0.17258765,  0.17223275
 41.22712164,  0.19011788,  0.17545757
 42.34431879,  0.15523785,  0.15311362
 46.22285321,  0.07857167,  0.07554294
 41.16766510,  0.17737760,  0.17664670
 42.91339670,  0.14175004,  0.14173207
 44.45283569,  0.11364514,  0.11094329
 45.05655506,  0.10776534,  0.09886890
 44.70499018,  0.11122444,  0.10590020
 43.74743456,  0.12565431,  0.12505131
 40.76336231,  0.18486985,  0.18473275
 42.44878640,  0.15150165,  0.15102427
 44.43155514,  0.14560797,  0.11136890
 40.42768462,  0.19155660,  0.19144631
 40.63705869,  0.18725966,  0.18725883
 40.30825678,  0.19415773,  0.19383486
 41.15525770,  0.18007499,  0.17689485
 43.07463737,  0.14324931,  0.13850725
 45.83682549,  0.12143140,  0.08326349
 40.03891142,  0.20145038,  0.19922177
 39.86953177,  0.21564644,  0.20260936
 39.41999836,  0.21356276,  0.21160003
 37.33220664,  0.25393808,  0.25335587
 39.61429558,  0.20857328,  0.20771409
 39.25158640,  0.21514012,  0.21496827
 39.34921881,  0.21310535,  0.21301562
 41.58169194,  0.16870896,  0.16836616
 42.28430689,  0.16158248,  0.15431386
 42.28920703,  0.17071393,  0.15421586
 39.98093739,  0.20837777,  0.20038125
 38.23127336,  0.23541850,  0.23537453
 39.16049369,  0.21680983,  0.21679013
 40.08692800,  0.23115412,  0.19826144
 39.80859282,  0.25752867,  0.20382814
 40.38591233,  0.22471684,  0.19228175
 39.89114846,  0.20324289,  0.20217703
 38.21096048,  0.24078628,  0.23578079
 36.04584924,  0.27910951,  0.27908302
 39.75255398,  0.20557534,  0.20494892
 37.66936686,  0.24970127,  0.24661266
 39.13279017,  0.24293516,  0.21734420
 39.85542257,  0.20440644,  0.20289155
 42.60947187,  0.17831711,  0.14781056
 42.04114225,  0.20550434,  0.15917716
 44.27116535,  0.19214819,  0.11457669
 43.47218104,  0.13707631,  0.13055638
 42.49528005,  0.15010663,  0.15009440
 40.13097167,  0.21898956,  0.19738057
 40.81416507,  0.18831929,  0.18371670
 42.02940681,  0.18744904,  0.15941186
 39.94321422,  0.20753111,  0.20113572
 43.42323735,  0.13571539,  0.13153525
 44.26968283,  0.14348536,  0.11460634
 46.05473658,  0.10945202,  0.07890527
 44.14786709,  0.11970288,  0.11704266
 45.45647263,  0.13076514,  0.09087055
 44.47860415,  0.11133013,  0.11042792
 48.31224407,  0.09050522,  0.03375512
 44.59046251,  0.12583161,  0.10819075
 41.29363273,  0.17538378,  0.17412735
 41.56201051,  0.17012585,  0.16875979
 38.12476783,  0.23794064,  0.23750464
 41.76644395,  0.18150473,  0.16467112
 37.21426128,  0.25587990,  0.25571477
 37.77587234,  0.25580652,  0.24448255
 43.12049947,  0.14165145,  0.13759001
 44.37403381,  0.15836333,  0.11251932
 42.27907074,  0.15601256,  0.15441859
 42.79477910,  0.15123941,  0.14410442
 41.91306059,  0.16176392,  0.16173879
 43.52673744,  0.13151718,  0.12946525
 47.09729783,  0.05808256,  0.05805404
 44.76559315,  0.10704026,  0.10468814
 44.92695057,  0.10354164,  0.10146099
 45.13911075,  0.11565241,  0.09721779
 45.12648385,  0.12005495,  0.09747032
 40.83101983,  0.19576420,  0.18337960
 40.96716421,  0.18243826,  0.18065672
 39.63279012,  0.20872184,  0.20734420
 36.79766779,  0.26406321,  0.26404664
 42.54511519,  0.14922496,  0.14909770
 43.99464860,  0.12016141,  0.12010703
 39.71619655,  0.20696826,  0.20567607
 40.95090041,  0.18622799,  0.18098199
 42.09996706,  0.16644984,  0.15800066
 42.60639021,  0.15444292,  0.14787220
 43.40418750,  0.13867660,  0.13191625
 45.10008383,  0.10142819,  0.09799832
 38.43047064,  0.23245052,  0.23139059
 39.47325122,  0.22181591,  0.21053498
 39.48405950,  0.21191277,  0.21031881
 42.33510964,  0.15703032,  0.15329781
 38.40952618,  0.23599413,  0.23180948
 41.04726971,  0.17905513,  0.17905461
 39.74486784,  0.20516245,  0.20510264
 45.77800056,  0.12082809,  0.08443999
 41.99988466,  0.20283688,  0.16000231
 39.75415315,  0.20969263,  0.20491694
 42.69908196,  0.14844106,  0.14601836
 40.72451428,  0.18559969,  0.18550971
 41.40002154,  0.17204750,  0.17199957
 41.15867531,  0.17684660,  0.17682649
 42.76956608,  0.15683242,  0.14460868
 39.91197624,  0.20492291,  0.20176048
 43.01592904,  0.14032983,  0.13968142
 48.35350162,  0.03367729,  0.03292997
 48.72605156,  0.06654006,  0.02547897
 44.56524941,  0.10915824,  0.10869501
 42.64735223,  0.15170022,  0.14705296
 41.90440676,  0.16877507,  0.16191186
 42.26956605,  0.15959916,  0.15460868
 41.67598283,  0.16648069,  0.16648034
 39.13364097,  0.21878935,  0.21732718
 42.00972528,  0.19496820,  0.15980549
 43.90697357,  0.13655044,  0.12186053
 44.09291255,  0.12960901,  0.11814175
 46.32141264,  0.09271574,  0.07357175
 43.53869215,  0.12998701,  0.12922616
 42.05866906,  0.16212138,  0.15882662
 42.91669759,  0.14834576,  0.14166605
 42.10542256,  0.15853026,  0.15789155
 36.82600300,  0.26348067,  0.26347994
 40.81724667,  0.18730285,  0.18365507
 40.28003825,  0.19545266,  0.19439923
 44.16187361,  0.12517583,  0.11676253
 43.93155498,  0.13722681,  0.12136890
 39.47730034,  0.21734813,  0.21045399
 39.15800316,  0.21736801,  0.21683994
 40.74334483,  0.19396221,  0.18513310
 39.92865223,  0.22148041,  0.20142696
 39.33038822,  0.22487934,  0.21339224
 40.18752533,  0.19624950,  0.19624949
 44.11623092,  0.12010311,  0.11767538
 41.71534570,  0.16622922,  0.16569309
 40.53827990,  0.18930565,  0.18923440
 43.48662635,  0.13220092,  0.13026747
 44.75853851,  0.10602271,  0.10482923
 45.26314309,  0.09744529,  0.09473714
 41.12476796,  0.19370106,  0.17750464
 39.47358724,  0.21111152,  0.21052826
 39.25994469,  0.22448235,  0.21480111
 39.82100026,  0.20393664,  0.20357999
 40.62049936,  0.19559549,  0.18759001
 42.89148451,  0.14305164,  0.14217031
 37.21396584,  0.26328169,  0.25572068
 38.65247159,  0.23577916,  0.22695057
 37.90707612,  0.24251209,  0.24185848
 36.56894834,  0.27029050,  0.26862103
 39.88557622,  0.23129267,  0.20228848
 41.88012080,  0.16343648,  0.16239758
 41.83147255,  0.16425086,  0.16337055
 42.20305491,  0.15955590,  0.15593890
 41.03282435,  0.18523423,  0.17934351
 42.01006139,  0.16038585,  0.15979877
 43.23759390,  0.14208313,  0.13524812
 41.98941240,  0.16076133,  0.16021175
 37.50500399,  0.25825073,  0.24989992
 43.17535143,  0.14835189,  0.13649297
 42.86719853,  0.16661945,  0.14265603
 44.96546251,  0.10102868,  0.10069075
 48.42119966,  0.06176339,  0.03157601
 42.05131886,  0.16256547,  0.15897362
 42.28379205,  0.15591244,  0.15432416
 40.57066429,  0.18881242,  0.18858671
 40.63620776,  0.18877873,  0.18727584
 40.04221236,  0.19927365,  0.19915575
 37.57845302,  0.25003592,  0.24843094
 39.36674569,  0.21307859,  0.21266509
 37.56957985,  0.25457286,  0.24860840
 39.06906507,  0.22008625,  0.21861870
 39.17932429,  0.21688379,  0.21641351
 38.81222976,  0.23250026,  0.22375540
 37.00800944,  0.25995463,  0.25983981
 41.56019204,  0.18230011,  0.16879616
 42.84803190,  0.14308481,  0.14303936
 37.51933259,  0.25950438,  0.24961335
 40.10200484,  0.20386935,  0.19795990
 42.01006137,  0.16087818,  0.15979877
 42.87800680,  0.17545848,  0.14243986
 39.66948360,  0.21444304,  0.20661033
 40.73599472,  0.20507155,  0.18528011
 36.93871216,  0.26334203,  0.26122576
 37.34171139,  0.25474612,  0.25316577
 38.10496975,  0.25866511,  0.23790061
 41.74613098,  0.17542486,  0.16507738
 42.59996708,  0.15168254,  0.14800066
 43.74958923,  0.12796329,  0.12500822
 41.94384575,  0.16456106,  0.16112309
 43.42598289,  0.14022928,  0.13148034
 44.71664943,  0.10583809,  0.10566701
 41.12607157,  0.17815533,  0.17747857
 39.93637898,  0.20211585,  0.20127242
 39.84888274,  0.21106092,  0.20302235
 40.70420131,  0.18794020,  0.18591597
 41.75039947,  0.16575974,  0.16499201
 41.21255961,  0.19059148,  0.17574881
 44.02213279,  0.12194761,  0.11955734
 41.22433550,  0.17775385,  0.17551329
 43.52331975,  0.14719691,  0.12953361
 41.49988455,  0.17147223,  0.17000231
 40.93519194,  0.18871574,  0.18129616
 39.43797800,  0.21411258,  0.21124044
 39.40685671,  0.21386194,  0.21186287
 39.83135580,  0.20372069,  0.20337288
 39.71961419,  0.20658387,  0.20560772
 41.45914199,  0.19244287,  0.17081716
 42.16669753,  0.15684116,  0.15666605
 44.88045687,  0.10422767,  0.10239086
 41.15622527,  0.17812843,  0.17687549
 38.38642708,  0.23249579,  0.23227146
 40.39917062,  0.19211655,  0.19201659
 42.08084105,  0.17494473,  0.15838318
 42.84194484,  0.16959038,  0.14316110
 45.12306614,  0.09986534,  0.09753868
 41.81297808,  0.16422472,  0.16374044
 39.28367525,  0.21657945,  0.21432649
 44.65418748,  0.12831653,  0.10691625
 39.62874092,  0.21399397,  0.20742518
 43.87703928,  0.12250051,  0.12245921
 42.58692813,  0.15635124,  0.14826144
 40.04306326,  0.21068108,  0.19913873
 40.63119101,  0.18925827,  0.18737618
 45.13881518,  0.11125860,  0.09722370
 44.36656699,  0.11317748,  0.11266866
 43.82623652,  0.13644330,  0.12347527
 43.34985045,  0.13927025,  0.13300299
 45.59996716,  0.09430416,  0.08800066
 42.20123653,  0.15909311,  0.15597527
 40.05238909,  0.20121326,  0.19895222
 38.89541688,  0.22938176,  0.22209166
 38.63237791,  0.22826360,  0.22735244
 41.05272520,  0.17906579,  0.17894550
 41.53367532,  0.17171863,  0.16932649
 39.06564746,  0.22067371,  0.21868705
 40.29317996,  0.19413836,  0.19413640
 42.82100038,  0.14906091,  0.14357999
 38.71801507,  0.23306254,  0.22563970
 41.87670318,  0.17003010,  0.16246594
 41.71995029,  0.17561174,  0.16560099
 41.65934741,  0.17420669,  0.16681305
 43.80558749,  0.14155364,  0.12388825
 43.93827365,  0.12694836,  0.12123453
 44.05216981,  0.13039835,  0.11895660
 39.48372347,  0.21034666,  0.21032553
 39.09740032,  0.22545672,  0.21805199
 40.58232343,  0.19113352,  0.18835353
 38.89166322,  0.22619301,  0.22216674
 42.41049385,  0.15182568,  0.15179012
 41.86526329,  0.16435250,  0.16269473
 40.89177994,  0.18217374,  0.18216440
 42.84558188,  0.14779266,  0.14308836
 40.61652633,  0.19675929,  0.18766947
 38.74237719,  0.24809375,  0.22515246
 39.42062995,  0.21524078,  0.21158740
 41.97860398,  0.16051429,  0.16042792
 39.48747713,  0.21154007,  0.21025046
 40.04039387,  0.20173344,  0.19919212
 37.31189371,  0.26662213,  0.25376213
 38.98866405,  0.22317719,  0.22022672
 39.65377520,  0.20725724,  0.20692450
 37.63642709,  0.24979489,  0.24727146
 38.36247711,  0.23311997,  0.23275046
 38.38676314,  0.23226616,  0.23226474
 42.30153831,  0.15408864,  0.15396923
 43.41112547,  0.13181668,  0.13177749
 40.97358729,  0.18175890,  0.18052825
 38.51421321,  0.22973374,  0.22971574
 43.51956619,  0.13265726,  0.12960868
 42.74891710,  0.14827808,  0.14502166
 39.48287253,  0.21065914,  0.21034255
 33.94758518,  0.32120228,  0.32104830
 40.24026317,  0.19598869,  0.19519474
 38.37498719,  0.23251130,  0.23250026
 36.66721226,  0.27203417,  0.26665575
 40.09643272,  0.19834065,  0.19807135
 41.54317998,  0.17585635,  0.16913640
 37.55387156,  0.25505574,  0.24892257
 35.34171121,  0.29382500,  0.29316578
 40.40162063,  0.19265239,  0.19196759
 40.98405949,  0.18480557,  0.18031881
 41.15429003,  0.18573435,  0.17691420
 39.59728357,  0.20945538,  0.20805433
 39.59301506,  0.20976073,  0.20813970
 43.95550503,  0.12138807,  0.12088990
 41.57805491,  0.16962908,  0.16843890
 44.39735227,  0.11864750,  0.11205295
 41.54136154,  0.17316806,  0.16917277
 40.27008092,  0.21835220,  0.19459838
 44.63205601,  0.12608371,  0.10735888
 39.85411886,  0.20294028,  0.20291762
 40.54403089,  0.19364595,  0.18911938
 40.84524575,  0.18604122,  0.18309508
 40.09000962,  0.19887669,  0.19819981
 41.04136142,  0.18063748,  0.17917277
 37.77434935,  0.24460335,  0.24451301
 40.56297809,  0.19626257,  0.18874044
 41.78430688,  0.18198941,  0.16431386
 42.53932368,  0.17666175,  0.14921353
 38.31906509,  0.23598038,  0.23361870
 42.03122532,  0.16876357,  0.15937549
 44.58670876,  0.12401463,  0.10826582
 38.37903639,  0.23297415,  0.23241927
 42.80900506,  0.14535679,  0.14381990
 42.13041627,  0.15752879,  0.15739167
 40.31167439,  0.20169449,  0.19376651
 43.43388844,  0.13825315,  0.13132223
 43.70925867,  0.12598961,  0.12581483
 44.34781252,  0.12509472,  0.11304375
 37.81894834,  0.24590196,  0.24362103
 42.78709291,  0.14917234,  0.14425814
 45.34484769,  0.11404866,  0.09310305
 41.05302068,  0.18000200,  0.17893959
 42.49549944,  0.16112565,  0.15009001
 38.42181691,  0.23650464,  0.23156366
 41.01729481,  0.17976995,  0.17965410
 42.39980217,  0.15238242,  0.15200396
 44.36356158,  0.11294335,  0.11272877
 46.36026061,  0.10781468,  0.07279479
 41.82003271,  0.17375797,  0.16359935
 38.89786691,  0.22262003,  0.22204266
 40.79329662,  0.18413864,  0.18413407
 40.57868645,  0.19103053,  0.18842627
 41.06724665,  0.18117931,  0.17865507
 40.09301514,  0.19821022,  0.19813970
 39.72165209,  0.20884112,  0.20556696
 39.91100862,  0.20798583,  0.20177983
 41.75597161,  0.16619848,  0.16488057
 40.30023461,  0.19428206,  0.19399531
 41.79693362,  0.16787423,  0.16406133
 40.90065307,  0.19551100,  0.18198694
 38.56041133,  0.23257993,  0.22879177
 40.21096051,  0.19835569,  0.19578079
 40.37573556,  0.19747284,  0.19248529
 40.56104298,  0.22453346,  0.18877914
 42.15043380,  0.18278892,  0.15699132
 41.81115959,  0.18191157,  0.16377681
 39.11429565,  0.22168280,  0.21771409
 40.72336789,  0.19174234,  0.18553264
 39.82526885,  0.20845790,  0.20349462
 46.87187935,  0.06742057,  0.06256241
 44.39991893,  0.13141707,  0.11200162
 43.34291249,  0.14628590,  0.13314175
 43.97166619,  0.13253968,  0.12056668
 40.86504386,  0.19420801,  0.18269912
 43.61174300,  0.13744199,  0.12776514
 37.62607150,  0.24801407,  0.24747857
 41.63620781,  0.17019540,  0.16727584
 42.67256524,  0.15272279,  0.14654870
 39.21898266,  0.21668409,  0.21562035
 39.57975672,  0.20990254,  0.20840487
 43.24528013,  0.13762050,  0.13509440
 42.09899951,  0.16209455,  0.15802001
 41.66766513,  0.18577647,  0.16664670
 42.56855025,  0.15336244,  0.14862900
 40.43177437,  0.21264134,  0.19136451
 40.99862155,  0.18010199,  0.18002757
 34.81404817,  0.33002128,  0.30371904
 38.47518638,  0.23447875,  0.23049627
 38.83937809,  0.23121544,  0.22321244
 44.80604022,  0.10388519,  0.10387920
 44.55046804,  0.11307187,  0.10899064
 40.34558181,  0.20359955,  0.19308836
 39.28731228,  0.21982513,  0.21425375
 36.35222417,  0.27834519,  0.27295552
 38.96277891,  0.22166536,  0.22074442
 37.31991594,  0.26476436,  0.25360168
 42.51559304,  0.15515534,  0.14968814
 42.33510954,  0.15336630,  0.15329781
 44.39092908,  0.11412190,  0.11218142
 44.66402818,  0.11075925,  0.10671944
 40.75597168,  0.18504559,  0.18488057
 39.58755959,  0.21407861,  0.20824881
 40.86931241,  0.18504298,  0.18261375
 43.42226975,  0.13593789,  0.13155460
 45.48247454,  0.09079576,  0.09035051
 41.85917624,  0.16750618,  0.16281648
 39.16413074,  0.21683263,  0.21671739
 42.70220405,  0.15161350,  0.14595592
 46.56094038,  0.07554441,  0.06878119
 43.36322545,  0.13335787,  0.13273549
 43.52298375,  0.13563626,  0.12954033
 42.90748835,  0.14186990,  0.14185023
 40.98127344,  0.18054096,  0.18037453
 39.42887155,  0.21260813,  0.21142257
 40.82890581,  0.18937377,  0.18342188
 41.51922996,  0.16976934,  0.16961540
 41.31724667,  0.17920616,  0.17365507
 40.02468545,  0.20016600,  0.19950629
 41.87607159,  0.20210902,  0.16247857
 40.11623076,  0.22066092,  0.19767538
 41.21534569,  0.17707134,  0.17569309
 40.38984476,  0.19761275,  0.19220310
 36.91561312,  0.26835956,  0.26168774
 42.91015777,  0.14410074,  0.14179684
 43.70186809,  0.15857181,  0.12596264
 40.87539947,  0.19522926,  0.18249201
 43.09654947,  0.15087260,  0.13806901
 43.70829117,  0.14002261,  0.12583418
 38.37561876,  0.23963309,  0.23248762
 41.27168008,  0.17469906,  0.17456640
 39.41391137,  0.21967273,  0.21172177
 44.07293553,  0.12327709,  0.11854129
 41.57378643,  0.16919198,  0.16852427
 42.50140770,  0.15973996,  0.14997185
 39.64757151,  0.22701596,  0.20704857
 43.82720417,  0.12456235,  0.12345592
 43.17910508,  0.13769560,  0.13641790
 43.13193933,  0.16994198,  0.13736121
 44.90173748,  0.10196832,  0.10196525
 44.76689682,  0.10490644,  0.10466206
 42.70157253,  0.15208663,  0.14596855
 40.63705867,  0.19471418,  0.18725883
