 E in E0, L in L0, L_z in L0
  0.52429222,  0.47891628,  0.47570778
  0.75297230,  0.25369563,  0.24702770
  0.80905438,  0.19199665,  0.19094562
  0.82168284,  0.19378345,  0.17831716
  0.84626628,  0.18272916,  0.15373372
  0.93890299,  0.07600007,  0.06109701
  0.86962780,  0.14699271,  0.13037220
  0.91115046,  0.10731191,  0.08884954
  0.96340025,  0.03666477,  0.03659975
  0.98026753,  0.08403219,  0.01973247
  0.95558608,  0.05901226,  0.04441392
  0.92586827,  0.09281019,  0.07413173
  0.91645871,  0.09288656,  0.08354129
  1.00064772,  0.00830654, -0.00064772
  0.92142825,  0.07861699,  0.07857175
  0.97971784,  0.06484370,  0.02028216
  0.97847971,  0.07902137,  0.02152029
  0.95622553,  0.10869602,  0.04377447
  0.97819520,  0.02191626,  0.02180480
  0.94428990,  0.05953751,  0.05571010
  0.85936264,  0.15389312,  0.14063736
  0.96791301,  0.03333826,  0.03208699
  0.87588529,  0.12447664,  0.12411471
  0.91603310,  0.09968001,  0.08396690
  0.94639627,  0.05662699,  0.05360373
  0.94923651,  0.08140478,  0.05076349
  0.85291067,  0.14713341,  0.14708933
  0.90869355,  0.09151818,  0.09130645
  0.88836593,  0.12006398,  0.11163407
  0.81996571,  0.18160939,  0.18003429
  0.84277630,  0.15737352,  0.15722370
  0.86229497,  0.15265933,  0.13770503
  0.90308375,  0.11192178,  0.09691625
  0.91012849,  0.11623739,  0.08987151
  0.89779923,  0.11551362,  0.10220077
  0.80801306,  0.19415372,  0.19198694
  0.78222347,  0.22007547,  0.21777653
  0.88143264,  0.12070340,  0.11856736
  0.92356275,  0.08314780,  0.07643725
  0.92812684,  0.07219794,  0.07187316
  0.90138364,  0.10040789,  0.09861636
  0.93221551,  0.08536567,  0.06778449
  0.98328962,  0.02751292,  0.01671038
  0.93911477,  0.06520409,  0.06088523
  0.91324419,  0.12799601,  0.08675581
  0.99986127,  0.13051508,  0.00013873
  0.91243167,  0.09070279,  0.08756833
  0.86875956,  0.16817019,  0.13124044
  0.87730760,  0.16177168,  0.12269240
  1.04858677,  0.06521947, -0.04858677
  0.95221112,  0.06204168,  0.04778888
  0.95180486,  0.04830473,  0.04819514
  0.92199934,  0.07838722,  0.07800066
  0.93602199,  0.06408975,  0.06397801
  0.96525257,  0.03502036,  0.03474743
  1.01531062,  0.09258741, -0.01531062
  1.03615512,  0.03822127, -0.03615512
  0.98637925,  0.02381853,  0.01362075
  0.92654408,  0.08817805,  0.07345592
  0.98496366,  0.06042032,  0.01503634
  0.94381090,  0.06555589,  0.05618910
  0.91838529,  0.09377115,  0.08161471
  0.86710845,  0.13480079,  0.13289155
  0.91971551,  0.08507661,  0.08028449
  0.96363344,  0.04074457,  0.03636656
  0.97181158,  0.02887762,  0.02818842
  0.94801101,  0.05593610,  0.05198899
  0.91249770,  0.08917658,  0.08750230
  0.90005342,  0.10003210,  0.09994658
  0.92344101,  0.07656331,  0.07655899
  0.91320783,  0.09812282,  0.08679217
  0.88255342,  0.12260002,  0.11744658
  0.92310982,  0.08587931,  0.07689018
  0.95801101,  0.04321857,  0.04198899
  0.88526519,  0.11553618,  0.11473481
  0.89107771,  0.10901775,  0.10892229
  0.94440959,  0.05950453,  0.05559041
  0.98171949,  0.06529270,  0.01828051
  0.95184795,  0.04888625,  0.04815205
  0.90582957,  0.09417325,  0.09417043
  0.93474158,  0.11182358,  0.06525842
  0.87037430,  0.13579644,  0.12962570
  0.94349673,  0.07627995,  0.05650327
  0.91711751,  0.08292010,  0.08288249
  1.01374488,  0.01728976, -0.01374488
  0.92767749,  0.10366793,  0.07232251
  0.91678990,  0.08903208,  0.08321010
  0.90276286,  0.10241875,  0.09723714
  0.92416144,  0.08166661,  0.07583856
  0.94763083,  0.05243467,  0.05236917
  1.00892701,  0.02300286, -0.00892701
  0.97171949,  0.07236274,  0.02828051
  0.89969849,  0.10050031,  0.10030151
  1.00850140,  0.01399805, -0.00850140
  0.97312918,  0.07660532,  0.02687082
  0.93507949,  0.07549283,  0.06492051
  0.95046873,  0.06880171,  0.04953127
  0.89677727,  0.10564068,  0.10322273
  0.89219616,  0.11182701,  0.10780384
  1.00255137,  0.02486121, -0.00255137
  0.95583862,  0.04832545,  0.04416138
  0.94732257,  0.05440078,  0.05267743
  0.92442660,  0.07879943,  0.07557340
  0.91678990,  0.08898122,  0.08321010
  0.84076121,  0.16317652,  0.15923879
  0.86970288,  0.14190671,  0.13029712
  0.90115717,  0.12050294,  0.09884283
  0.98420920,  0.08621170,  0.01579080
  0.92079992,  0.08276037,  0.07920008
  1.00267983,  0.01172526, -0.00267983
  0.87416582,  0.12960796,  0.12583418
  0.91349001,  0.09251022,  0.08650999
  0.89674681,  0.10427206,  0.10325319
  0.87414208,  0.12752608,  0.12585792
  0.88029251,  0.12003014,  0.11970749
  0.98081488,  0.06853872,  0.01918512
  0.92730321,  0.08035744,  0.07269679
  0.87537430,  0.16676739,  0.12462570
  1.03372348,  0.06729296, -0.03372348
  0.99861642,  0.00231654,  0.00138358
  0.96930486,  0.07137564,  0.03069514
  0.95030829,  0.10437599,  0.04969171
  0.97115951,  0.02884907,  0.02884049
  0.91065882,  0.09274336,  0.08934118
  0.88277549,  0.11842011,  0.11722451
  0.87861175,  0.12145297,  0.12138825
  0.92586827,  0.08321041,  0.07413173
  0.96187994,  0.10588785,  0.03812006
  0.95383025,  0.11429897,  0.04616975
  0.89284151,  0.12281184,  0.10715849
  0.87916582,  0.14476946,  0.12083418
  0.93186497,  0.08159821,  0.06813503
  0.95544938,  0.04475943,  0.04455062
  0.91347066,  0.09595278,  0.08652934
  0.88477123,  0.11525157,  0.11522877
  0.93856508,  0.08310840,  0.06143492
  0.95842399,  0.04609614,  0.04157601
  0.94500675,  0.08376049,  0.05499325
  0.88392001,  0.12751186,  0.11607999
  0.93798575,  0.06738739,  0.06201425
  0.90481432,  0.12531923,  0.09518568
  0.99906577,  0.05918071,  0.00093423
  0.93923651,  0.08564854,  0.06076349
  0.97784027,  0.03490915,  0.02215973
  0.93286992,  0.07170609,  0.06713008
  0.96671949,  0.03792825,  0.03328051
  1.00218148,  0.05660701, -0.00218148
  0.98288927,  0.01753319,  0.01711073
  0.93097299,  0.08097863,  0.06902701
  0.86239297,  0.15493703,  0.13760703
  0.89629155,  0.14946111,  0.10370845
  0.93586388,  0.09360758,  0.06413612
  0.92433094,  0.14941601,  0.07566906
  0.97975655,  0.04422162,  0.02024345
  0.96217475,  0.03963127,  0.03782525
  1.00963838,  0.04508086, -0.00963838
  0.95411477,  0.05994070,  0.04588523
  0.93950840,  0.06168607,  0.06049160
  0.89446297,  0.12599930,  0.10553703
  0.95557345,  0.04762270,  0.04442655
  0.99850731,  0.02996908,  0.00149269
  0.95114607,  0.04887784,  0.04885393
  0.94695268,  0.09874627,  0.05304732
  0.90941397,  0.09376481,  0.09058603
  0.95984192,  0.04981271,  0.04015808
  0.95565882,  0.04434355,  0.04434118
  0.99890533,  0.07207852,  0.00109467
  0.90843429,  0.10770619,  0.09156571
  0.95372553,  0.08509516,  0.04627447
  0.99284027,  0.02269959,  0.00715973
  0.97832160,  0.02340387,  0.02167840
  0.93747038,  0.09017724,  0.06252962
  0.89223486,  0.10868773,  0.10776514
  0.91897134,  0.08669205,  0.08102866
  0.98876423,  0.03480311,  0.01123577
  0.92208114,  0.07957318,  0.07791886
  1.02297107,  0.03495864, -0.02297107
  0.94618325,  0.06969370,  0.05381675
  0.98850140,  0.02720754,  0.01149860
  0.98808608,  0.05273114,  0.01191392
  0.87459143,  0.15389957,  0.12540857
  0.89519684,  0.10835346,  0.10480316
  0.88909980,  0.11090235,  0.11090020
  0.93012410,  0.07125908,  0.06987590
  0.92611408,  0.07392303,  0.07388592
  0.95774146,  0.07375548,  0.04225854
  0.87211751,  0.15725666,  0.12788249
  0.91658279,  0.08542498,  0.08341721
  1.00267544,  0.09312725, -0.00267544
  0.92730088,  0.08504290,  0.07269912
  0.93788694,  0.10462905,  0.06211306
  0.95905233,  0.05446565,  0.04094767
  0.96694596,  0.04702856,  0.03305404
  0.97031420,  0.03915398,  0.02968580
  0.91818847,  0.08181508,  0.08181153
  0.91387925,  0.10001016,  0.08612075
  1.00989092,  0.03522009, -0.00989092
  0.97992729,  0.06537971,  0.02007271
  0.87393264,  0.13312081,  0.12606736
  0.93240203,  0.07676392,  0.06759797
  0.92878125,  0.07124386,  0.07121875
  0.97080225,  0.04869557,  0.02919775
  0.99050663,  0.07499079,  0.00949337
  0.98471785,  0.11818355,  0.01528215
  0.95382353,  0.04779297,  0.04617647
  0.95580225,  0.04683421,  0.04419775
  0.97069081,  0.07394036,  0.02930919
  1.02726918,  0.03083455, -0.02726918
  0.93944595,  0.06096521,  0.06055405
  0.91206179,  0.08914212,  0.08793821
  0.90209143,  0.10826797,  0.09790857
  0.92890890,  0.08650530,  0.07109110
  0.90097738,  0.13093077,  0.09902262
  0.97769246,  0.04540495,  0.02230754
  0.95258101,  0.08090703,  0.04741899
  0.99946092,  0.04924334,  0.00053908
  0.98340698,  0.01899916,  0.01659302
  0.93495103,  0.09202581,  0.06504897
  0.90134727,  0.09866998,  0.09865273
  0.94661477,  0.08188309,  0.05338523
  0.91924323,  0.08142379,  0.08075677
  0.87920686,  0.12814455,  0.12079314
  0.96840697,  0.03988316,  0.03159303
  0.97631995,  0.06758165,  0.02368005
  0.95487829,  0.04521628,  0.04512171
  0.97665786,  0.02498604,  0.02334214
  1.04071249,  0.04138570, -0.04071249
  1.01991027,  0.02700356, -0.01991027
  0.96707003,  0.03983355,  0.03292997
  0.81017515,  0.19656571,  0.18982485
  0.85832956,  0.14440743,  0.14167044
  0.86038460,  0.14025570,  0.13961540
  0.90905671,  0.09952139,  0.09094329
  0.92084892,  0.08854578,  0.07915108
  0.90104573,  0.09965565,  0.09895427
  0.97003201,  0.04657061,  0.02996799
  0.95612081,  0.09533329,  0.04387919
  0.85308141,  0.14706080,  0.14691859
  0.97223719,  0.06186049,  0.02776281
  0.96783588,  0.03989652,  0.03216412
  0.93505136,  0.07225219,  0.06494864
  0.90961312,  0.12173410,  0.09038688
  0.98417049,  0.04560135,  0.01582951
  0.93903970,  0.07175762,  0.06096030
  0.98141124,  0.07941533,  0.01858876
  1.00173212,  0.00219975, -0.00173212
  0.95689023,  0.04543842,  0.04310977
  0.95935386,  0.04533726,  0.04064614
  0.97471784,  0.02773296,  0.02528216
  0.90982695,  0.09165808,  0.09017305
  0.94899070,  0.06357185,  0.05100930
  0.91882792,  0.11371378,  0.08117208
  0.89852047,  0.12116223,  0.10147953
  0.93156344,  0.09605318,  0.06843656
  0.92638597,  0.11379006,  0.07361403
  0.86034823,  0.13965977,  0.13965177
  0.91549166,  0.08861982,  0.08450834
  0.94141562,  0.05905901,  0.05858438
  0.88071221,  0.11932975,  0.11928779
  0.84298341,  0.15734900,  0.15701659
  0.87073156,  0.13426525,  0.12926844
  0.86734397,  0.13270591,  0.13265603
  0.91668518,  0.09495613,  0.08331482
  1.02670014,  0.06651567, -0.02670014
  1.03622114,  0.03628184, -0.03622114
  1.01308609,  0.03453345, -0.01308609
  0.95060310,  0.05505222,  0.04939690
  0.86215154,  0.13796139,  0.13784846
  0.94432860,  0.07636600,  0.05567140
  0.96069081,  0.03944626,  0.03930919
  0.86659308,  0.13608087,  0.13340692
  0.91453133,  0.10478733,  0.08546867
  1.02419576,  0.04199572, -0.02419576
  0.86554505,  0.14308398,  0.13445495
  0.89884727,  0.10141003,  0.10115273
  0.95020947,  0.07396742,  0.04979053
  0.88842166,  0.11195243,  0.11157834
  0.92363344,  0.07678830,  0.07636656
  0.97727947,  0.04932936,  0.02272053
  0.93023912,  0.06976290,  0.06976088
  0.94751705,  0.06969536,  0.05248295
  1.03643059,  0.03682492, -0.03643059
  1.01609707,  0.06536017, -0.01609707
  0.96286992,  0.04965176,  0.03713008
  1.00750236,  0.04024563, -0.00750236
  0.98251266,  0.03088347,  0.01748734
  0.90764112,  0.09879911,  0.09235888
  0.95228620,  0.04772776,  0.04771380
  0.92336827,  0.09816998,  0.07663173
  0.82318614,  0.18033575,  0.17681386
  0.88480088,  0.11752211,  0.11519912
  0.89686497,  0.12783856,  0.10313503
  0.90816555,  0.09194292,  0.09183445
  0.85757277,  0.15166188,  0.14242723
  0.95966212,  0.07214720,  0.04033788
  0.85910338,  0.14452422,  0.14089662
  0.92049166,  0.09316391,  0.07950834
  0.88341494,  0.12012049,  0.11658506
  0.87454834,  0.13010416,  0.12545166
  0.88328056,  0.11672528,  0.11671944
  0.94076355,  0.06235891,  0.05923645
  0.91316912,  0.09619637,  0.08683088
  0.97572718,  0.02481698,  0.02427282
  0.91613782,  0.08890589,  0.08386218
  0.88617419,  0.11539676,  0.11382581
  0.82159075,  0.17952016,  0.17840925
  0.88066912,  0.11952460,  0.11933088
  0.95922307,  0.04656087,  0.04077693
  0.92753640,  0.09197389,  0.07246360
  0.95937760,  0.04975845,  0.04062240
  0.99650333,  0.02586409,  0.00349667
  0.92286758,  0.07794023,  0.07713242
  0.94823747,  0.05183376,  0.05176253
  1.02529718,  0.10547689, -0.02529718
  0.96909542,  0.14010279,  0.03090458
  1.01436731,  0.08342639, -0.01436731
  0.85925791,  0.15511781,  0.14074209
  0.94326355,  0.06010514,  0.05673645
  0.95237829,  0.05194232,  0.04762171
  0.91021386,  0.10261303,  0.08978614
  0.98376423,  0.07160174,  0.01623577
  0.90514112,  0.12082326,  0.09485888
  0.93563508,  0.13435019,  0.06436492
  0.94828290,  0.05231229,  0.05171710
  1.06039161,  0.08108396, -0.06039161
  0.96917640,  0.05209753,  0.03082360
  0.97807937,  0.04274613,  0.02192063
  0.89764112,  0.11154574,  0.10235888
  0.93323390,  0.09091562,  0.06676610
  0.92778894,  0.08371520,  0.07221106
  0.93899070,  0.09615748,  0.06100930
  0.89102871,  0.16456169,  0.10897129
  0.90711312,  0.14299737,  0.09288688
  0.94842399,  0.07224516,  0.05157601
  0.95214949,  0.11217297,  0.04785051
  0.89108882,  0.11348297,  0.10891118
  0.94527783,  0.06011466,  0.05472217
  0.89552803,  0.13237824,  0.10447197
  0.92815210,  0.10483421,  0.07184790
  1.03689929,  0.04219984, -0.03689929
  1.00295763,  0.05406400, -0.00295763
  0.88090464,  0.13208011,  0.11909536
  0.86865717,  0.15577518,  0.13134283
  0.94235894,  0.08171204,  0.05764106
  0.98870851,  0.08692194,  0.01129149
  1.01314181,  0.08359837, -0.01314181
  1.01689929,  0.04975119, -0.01689929
  0.94831255,  0.05697050,  0.05168745
  0.96313509,  0.04175126,  0.03686491
  0.97035057,  0.04100932,  0.02964943
  0.92797464,  0.08735081,  0.07202536
  0.96179223,  0.03897835,  0.03820777
  0.94145871,  0.10691145,  0.05854129
  0.93075011,  0.09719203,  0.06924989
  0.96706331,  0.06481948,  0.03293669
  0.99390094,  0.04543126,  0.00609906
  0.93298136,  0.07693978,  0.06701864
  0.98693566,  0.01736507,  0.01306434
  0.96846270,  0.07126536,  0.03153730
  0.95177521,  0.08800939,  0.04822479
  0.82182393,  0.18264024,  0.17817607
  0.92959377,  0.07539543,  0.07040623
  0.84032297,  0.20122942,  0.15967703
  0.93228386,  0.09184553,  0.06771614
  0.96086827,  0.07048882,  0.03913173
  0.90804738,  0.09916307,  0.09195262
  0.96137925,  0.07125179,  0.03862075
  1.01926411,  0.03821961, -0.01926411
  0.98726918,  0.04600323,  0.01273082
  0.95051334,  0.05030306,  0.04948666
  0.95067818,  0.05554908,  0.04932182
  0.89975188,  0.16519650,  0.10024812
  0.93840464,  0.10605257,  0.06159536
  0.90284466,  0.09967980,  0.09715534
  1.00068051,  0.02334578, -0.00068051
  0.93661244,  0.08941862,  0.06338756
  0.88898164,  0.11431737,  0.11101836
  0.86495541,  0.16094363,  0.13504459
  0.91251705,  0.08938201,  0.08748295
  0.88562012,  0.14593046,  0.11437988
  0.94314619,  0.09074183,  0.05685381
  0.90566912,  0.09434155,  0.09433088
  0.85411010,  0.14593341,  0.14588990
  0.97413179,  0.02705691,  0.02586821
  0.89931955,  0.10347640,  0.10068045
  0.90313042,  0.10672963,  0.09686958
  0.94581255,  0.11603851,  0.05418745
  0.99191631,  0.09342296,  0.00808369
  0.93572718,  0.08252574,  0.06427282
  0.91604573,  0.08405860,  0.08395427
  0.96692303,  0.08416282,  0.03307697
  1.00254464,  0.01858227, -0.00254464
  0.99774146,  0.06699122,  0.00225854
  0.93469177,  0.07984857,  0.06530823
  0.92554738,  0.07793013,  0.07445262
  0.88614373,  0.12307296,  0.11385627
  0.94827618,  0.05473298,  0.05172382
  0.91423651,  0.08583201,  0.08576349
  0.92598643,  0.07669432,  0.07401357
  0.93219849,  0.07081742,  0.06780151
  0.83827823,  0.16390228,  0.16172177
  0.96493168,  0.09160967,  0.03506832
  0.93297903,  0.08615083,  0.06702097
  0.96522883,  0.03694190,  0.03477117
  0.91549166,  0.09939563,  0.08450834
  0.94036992,  0.08326280,  0.05963008
  0.96272883,  0.04490961,  0.03727117
  0.98034027,  0.08232094,  0.01965973
  0.98338762,  0.09265757,  0.01661238
  0.93156344,  0.08851942,  0.06843656
  0.88984397,  0.11275109,  0.11015603
  0.93631090,  0.07958803,  0.06368910
  0.93116981,  0.09771758,  0.06883019
  1.00331488,  0.04008999, -0.00331488
  0.95262410,  0.09774390,  0.04737590
  0.97015609,  0.05257616,  0.02984391
  0.95247629,  0.06981004,  0.04752371
  0.97001266,  0.06152912,  0.02998734
  0.93209377,  0.10285133,  0.06790623
  0.98224983,  0.01929657,  0.01775017
  0.93903970,  0.06575038,  0.06096030
  0.89063947,  0.13681935,  0.10936053
  0.95933094,  0.05630654,  0.04066906
  0.99579553,  0.01322583,  0.00420447
  1.01437994,  0.03483628, -0.01437994
  0.95198905,  0.05471486,  0.04801095
  0.90552803,  0.09449009,  0.09447197
  1.00205301,  0.05866971, -0.00205301
  0.89062012,  0.12048529,  0.10937988
  0.88196969,  0.12236325,  0.11803031
  0.88807112,  0.11201977,  0.11192888
  0.89012849,  0.11008716,  0.10987151
  1.01581488,  0.01773409, -0.01581488
  0.98611642,  0.03401083,  0.01388358
  1.01477590,  0.04573753, -0.01477590
  1.06817613,  0.09349694, -0.06817613
  0.95400771,  0.07864747,  0.04599229
  0.96301773,  0.04323922,  0.03698227
  0.96677960,  0.05805858,  0.03322040
  0.97674323,  0.04317258,  0.02325677
  0.92271619,  0.08451248,  0.07728381
  0.92353901,  0.08398559,  0.07646099
  0.99758773,  0.05334718,  0.00241227
  0.86671482,  0.13667984,  0.13328518
  0.86187527,  0.14385737,  0.13812473
  0.91936497,  0.08345926,  0.08063503
  0.87490999,  0.12898597,  0.12509001
  0.92668751,  0.08163649,  0.07331249
  0.94998301,  0.05523382,  0.05001699
  0.89308375,  0.12670496,  0.10691625
  0.96069081,  0.08106016,  0.03930919
  0.92435234,  0.08660928,  0.07564766
  0.90406110,  0.11940358,  0.09593890
  1.02576588,  0.05318223, -0.02576588
  0.96475421,  0.04386387,  0.03524579
  0.88427727,  0.12797938,  0.11572273
  0.91895871,  0.08960935,  0.08104129
  0.92188432,  0.12906361,  0.07811568
  0.91959377,  0.09432305,  0.08040623
  0.93659542,  0.07687478,  0.06340458
  0.91112081,  0.09213040,  0.08887919
  1.03220083,  0.03949475, -0.03220083
  0.99737829,  0.10278595,  0.00262171
  0.99889861,  0.01272213,  0.00110139
  0.88976451,  0.11069227,  0.11023549
  0.90446297,  0.09720211,  0.09553703
  0.85324186,  0.15207268,  0.14675814
  0.91166144,  0.08848187,  0.08833856
  0.96170686,  0.08171633,  0.03829314
  0.92331927,  0.08923913,  0.07668073
  0.89533794,  0.12153572,  0.10466206
  0.98575916,  0.06190309,  0.01424084
  0.92227123,  0.07825360,  0.07772877
  0.89701636,  0.11201431,  0.10298364
  0.96489531,  0.03835922,  0.03510469
  1.06007744,  0.06073997, -0.06007744
  1.03983753,  0.04866269, -0.03983753
  0.96621881,  0.04123717,  0.03378119
  0.95007277,  0.05305678,  0.04992723
  0.98551101,  0.01907699,  0.01448899
  0.91936497,  0.10706371,  0.08063503
  0.92751033,  0.07538006,  0.07248967
  0.99404203,  0.05576794,  0.00595797
  0.95557345,  0.04842125,  0.04442655
  0.89499769,  0.11014010,  0.10500231
  0.91714716,  0.11537257,  0.08285284
  0.90000441,  0.10777083,  0.09999559
  0.87099001,  0.13215968,  0.12900999
  0.91109473,  0.09244839,  0.08890527
  0.86661010,  0.13815294,  0.13338990
  0.83990327,  0.16595313,  0.16009673
  0.91070549,  0.13673575,  0.08929451
  0.90435153,  0.11853826,  0.09564847
  0.88318175,  0.13378410,  0.11681825
  0.87081021,  0.15611766,  0.12918979
  0.99629388,  0.05174030,  0.00370612
  1.02695501,  0.02844890, -0.02695501
  0.94741466,  0.07211761,  0.05258534
  1.01026753,  0.03518777, -0.01026753
  0.92162588,  0.07838903,  0.07837412
