 E in E0, L in L0, L_z in L0
 10.23468329,  0.48911342,  0.48826584
 13.89203451,  0.30591268,  0.30539827
 16.76522420,  0.16588583,  0.16173879
 19.14003355,  0.04952335,  0.04299832
 17.15068127,  0.14290320,  0.14246594
 18.55209504,  0.08415614,  0.07239525
 17.01176270,  0.16615332,  0.14941186
 18.32339613,  0.12969137,  0.08383019
 16.97270976,  0.20996852,  0.15136451
 18.51599835,  0.07982077,  0.07420008
 16.00102160,  0.20000954,  0.19994892
 17.19576496,  0.16187043,  0.14021175
 17.66240243,  0.12238099,  0.11687988
 19.01873247,  0.04912823,  0.04906338
 18.10158978,  0.12486873,  0.09492051
 17.57844685,  0.13256210,  0.12107766
 19.76702507,  0.01199782,  0.01164875
 18.11240244,  0.09773685,  0.09437988
 17.95885314,  0.10897378,  0.10205734
 16.09644566,  0.19630854,  0.19517772
 16.69276200,  0.17088516,  0.16536190
 17.20598460,  0.14077616,  0.13970077
 18.10885311,  0.09690730,  0.09455734
 18.50282239,  0.07496572,  0.07485888
 17.83789238,  0.10827942,  0.10810538
 17.42027494,  0.13378570,  0.12898625
 16.70409605,  0.17076977,  0.16479520
 18.36625095,  0.10190052,  0.08168745
 17.52899314,  0.12883701,  0.12355034
 17.68507056,  0.13521209,  0.11574647
 17.04858682,  0.14859493,  0.14757066
 17.46326422,  0.12709145,  0.12683679
 16.04216900,  0.19789484,  0.19789155
 15.76445012,  0.21201162,  0.21177749
 17.61723097,  0.12456799,  0.11913845
 20.69230916,  0.04066892, -0.03461546
 19.10889985,  0.05172389,  0.04455501
 18.65569095,  0.06906099,  0.06721545
 17.31843311,  0.13468562,  0.13407834
 16.67630567,  0.16804191,  0.16618472
 17.28515831,  0.13734121,  0.13574208
 17.37523796,  0.13922043,  0.13123810
 17.35880647,  0.14201491,  0.13205968
 16.47698637,  0.17619395,  0.17615068
 19.26834541,  0.03669838,  0.03658273
 18.42805980,  0.08278664,  0.07859701
 18.27694533,  0.09064142,  0.08615273
 19.45680539,  0.07280939,  0.02715973
 17.71770572,  0.11686524,  0.11411471
 17.68652534,  0.11695766,  0.11567373
 17.57591868,  0.13134594,  0.12120407
 18.04182870,  0.10003603,  0.09790856
 18.15748609,  0.11483072,  0.09212570
 19.08814502,  0.05703599,  0.04559275
 18.99640465,  0.08243119,  0.05017977
 17.32334940,  0.13581425,  0.13383253
 18.46625093,  0.08629763,  0.07668745
 18.29456278,  0.09986084,  0.08527186
 16.73365679,  0.16803236,  0.16331716
 16.88613828,  0.17775637,  0.15569309
 18.30441165,  0.09281585,  0.08477942
 18.26993464,  0.10080152,  0.08650327
 17.65821348,  0.11776795,  0.11708933
 18.26140618,  0.12190016,  0.08692969
 19.59422248,  0.09456246,  0.02028888
 18.95380245,  0.05374221,  0.05230988
 18.59371722,  0.09070909,  0.07031414
 17.20423051,  0.14206141,  0.13978847
 17.85689309,  0.10758944,  0.10715535
 17.44812824,  0.12889290,  0.12759359
 18.26882019,  0.09371483,  0.08655899
 17.88875425,  0.11562973,  0.10556229
 18.66167501,  0.14244636,  0.06691625
 18.43618500,  0.11750558,  0.07819075
 18.29529022,  0.08571932,  0.08523549
 17.31706608,  0.13463109,  0.13414670
 17.83691239,  0.11103834,  0.10815438
 18.66599835,  0.07442924,  0.06670008
 18.34961355,  0.09013700,  0.08251932
 17.16531198,  0.14685346,  0.14173440
 18.04221574,  0.12039529,  0.09788921
 16.18772748,  0.20127285,  0.19061363
 16.76963530,  0.16157402,  0.16151824
 18.00158976,  0.10004598,  0.09992051
 17.48322870,  0.12627240,  0.12583857
 17.71167500,  0.11780528,  0.11441625
 17.79255609,  0.12088713,  0.11037220
 17.63345088,  0.11928553,  0.11832746
 16.93169678,  0.15459406,  0.15341516
 17.58113427,  0.12124166,  0.12094329
 17.07348385,  0.14653794,  0.14632581
 18.20748610,  0.12424983,  0.08962570
 18.49888611,  0.15303158,  0.07505569
 16.88775794,  0.16583337,  0.15561210
 18.70064020,  0.08672567,  0.06496799
 18.64474390,  0.06793278,  0.06776281
 17.52801312,  0.12951693,  0.12359934
 16.74105460,  0.16837331,  0.16294727
 17.26647310,  0.14134912,  0.13667635
 17.33554532,  0.15082895,  0.13322273
 17.33998686,  0.14580004,  0.13300066
 17.68802687,  0.11763212,  0.11559866
 16.98700013,  0.15719830,  0.15064999
 15.45602563,  0.23143466,  0.22719872
 17.07373646,  0.14646523,  0.14631318
 17.71868577,  0.13549176,  0.11406571
 17.69922649,  0.11655311,  0.11503868
 18.11697833,  0.09416747,  0.09415108
 18.10059355,  0.16287532,  0.09497032
 17.26743688,  0.16058342,  0.13662816
 15.00730493,  0.26137693,  0.24963475
 17.37321503,  0.14751585,  0.13133925
 17.40277573,  0.14109368,  0.12986121
 18.08789240,  0.13423199,  0.09560538
 17.82412350,  0.11033300,  0.10879382
 16.02357155,  0.19902893,  0.19882142
 16.65115603,  0.16761878,  0.16744220
 15.54815306,  0.22341802,  0.22259235
 14.88301709,  0.25934490,  0.25584915
 16.75611901,  0.16255431,  0.16219405
 16.26090089,  0.18705251,  0.18695496
 17.01902610,  0.15142444,  0.14904869
 18.07039316,  0.10025211,  0.09648034
 18.68322871,  0.06585979,  0.06583856
 18.92326170,  0.10727377,  0.05383692
 18.41633869,  0.09836857,  0.07918307
 16.62022826,  0.17063390,  0.16898859
 14.64999485,  0.26901061,  0.26750026
 17.46522424,  0.12774177,  0.12673879
 17.26720048,  0.16776294,  0.13663998
 18.20552605,  0.16054930,  0.08972370
 17.46437864,  0.14233939,  0.12678107
 17.49721975,  0.12665532,  0.12513901
 16.97061531,  0.18703759,  0.15146923
 16.97664606,  0.16962140,  0.15116770
 18.20158979,  0.09470644,  0.08992051
 18.25008833,  0.09846024,  0.08749558
 19.58254807,  0.04464379,  0.02087260
 19.06513655,  0.07487681,  0.04674317
 19.01561132,  0.05689427,  0.04921943
 18.70320948,  0.07480006,  0.06483953
 18.03925946,  0.09934795,  0.09803703
 17.49123572,  0.12543998,  0.12543821
 19.24474393,  0.05217099,  0.03776280
 19.13657207,  0.05689012,  0.04317140
 19.39670396,  0.04728844,  0.03016480
 18.22903984,  0.08860632,  0.08854801
 18.76945984,  0.10391173,  0.06152701
 17.46030793,  0.16581951,  0.12698460
 18.18964651,  0.09152763,  0.09051767
 19.18575693,  0.05768218,  0.04071215
 19.98156807,  0.06056580,  0.00092160
 18.71984691,  0.07873214,  0.06400765
 18.12364875,  0.09393486,  0.09381756
 18.65248205,  0.07944771,  0.06737590
 18.92626466,  0.08048636,  0.05368677
 17.28233642,  0.13615645,  0.13588318
 16.33477122,  0.18462281,  0.18326144
 17.49431018,  0.12715369,  0.12528449
 17.22544389,  0.16834622,  0.13872781
 16.40161460,  0.18035400,  0.17991927
 16.49524348,  0.18029232,  0.17523783
 18.12583092,  0.11133115,  0.09370845
 17.80487018,  0.12146381,  0.10975649
 17.64255611,  0.12071881,  0.11787219
 18.79902057,  0.07891004,  0.06004897
 17.66809275,  0.12557045,  0.11659536
 17.55500459,  0.13212206,  0.12224977
 17.61595163,  0.12288269,  0.11920242
 17.79255608,  0.11108506,  0.11037220
 18.34037393,  0.10097774,  0.08298130
 18.70282245,  0.09771799,  0.06485888
 18.48939389,  0.07601757,  0.07553031
 18.04444459,  0.09815911,  0.09777777
 17.31929495,  0.14461617,  0.13403525
 18.37990162,  0.08108122,  0.08100492
 17.59046162,  0.12066478,  0.12047692
 18.09392314,  0.09886528,  0.09530384
 18.45739835,  0.11334640,  0.07713008
 18.43152131,  0.08782194,  0.07842393
 17.46265499,  0.14219476,  0.12686725
 17.71056054,  0.13869444,  0.11447197
 18.79743135,  0.06036920,  0.06012843
 16.86410979,  0.16286753,  0.15679451
 16.33206759,  0.18349372,  0.18339662
 16.90816681,  0.16233640,  0.15459166
 16.14644569,  0.19402498,  0.19267772
 17.46633870,  0.13654505,  0.12668306
 18.14849913,  0.13384454,  0.09257504
 17.32150758,  0.15549926,  0.13392462
 18.49888614,  0.15115628,  0.07505569
 19.04319578,  0.07682236,  0.04784021
 20.57947358,  0.04251952, -0.02897368
 19.36493060,  0.04774558,  0.03175347
 16.70782643,  0.17088383,  0.16460868
 18.60910580,  0.06960915,  0.06954471
 18.84126619,  0.05857153,  0.05793669
 18.31907283,  0.08444026,  0.08404636
 16.59071424,  0.17085600,  0.17046429
 18.68755206,  0.06568857,  0.06562240
 19.52096133,  0.04519478,  0.02395193
 17.65329718,  0.13540557,  0.11733514
 17.32360204,  0.15546257,  0.13381990
 20.07676990,  0.00449662, -0.00383850
 18.63544138,  0.06843336,  0.06822793
 17.28716498,  0.13704625,  0.13564175
 18.98571023,  0.05071560,  0.05071449
 17.04314904,  0.14951930,  0.14784255
 19.28682466,  0.04575648,  0.03565877
 18.63420873,  0.10289678,  0.06828956
 19.09927318,  0.04984476,  0.04503634
 18.16192761,  0.09774387,  0.09190362
 17.20302833,  0.14064842,  0.13984858
 16.57039315,  0.18549631,  0.17148034
 15.81897940,  0.21099843,  0.20905103
 15.73896013,  0.21395698,  0.21305199
 16.65880644,  0.16708699,  0.16705968
 18.11351686,  0.09909258,  0.09432416
 17.31226798,  0.14780362,  0.13438660
 17.77458207,  0.11451097,  0.11127090
 16.43575122,  0.19946023,  0.17821244
 18.63964650,  0.08492662,  0.06801767
 17.50448316,  0.13812796,  0.12477584
 17.41693166,  0.12918518,  0.12915342
 18.94435688,  0.06014126,  0.05278216
 18.92378319,  0.06690524,  0.05381084
 18.98190839,  0.06869209,  0.05090458
 19.39076096,  0.03255099,  0.03046195
 18.37681095,  0.08145976,  0.08115945
 17.61961910,  0.12309831,  0.11901904
 18.43356910,  0.09107792,  0.07832154
 18.94973173,  0.07884378,  0.05251341
 18.23839767,  0.12991304,  0.08808012
 18.47228173,  0.10163388,  0.07638591
 17.45992091,  0.12756685,  0.12700395
 18.79679171,  0.06018543,  0.06016041
 18.66625096,  0.07144187,  0.06668745
 17.50932793,  0.12592260,  0.12453360
 15.78404381,  0.22439727,  0.21079781
 17.97202907,  0.10380985,  0.10139855
 17.47963281,  0.12734279,  0.12601836
 16.27997312,  0.19941242,  0.18600134
 16.73356905,  0.19779358,  0.16332155
 17.90393686,  0.11230785,  0.10480316
 19.23609728,  0.08694888,  0.03819514
 17.84679168,  0.12152809,  0.10766042
 18.28853207,  0.09189864,  0.08557340
 16.37972049,  0.18219782,  0.18101398
 17.23306382,  0.14183326,  0.13834681
 15.95090338,  0.21835451,  0.20245483
 16.54970124,  0.17386928,  0.17251494
 18.57241614,  0.15074303,  0.07137919
 16.50193011,  0.17705162,  0.17490349
 18.42805981,  0.07860062,  0.07859701
 19.25675873,  0.11589398,  0.03716206
 17.60671202,  0.12766128,  0.11966440
 16.92407680,  0.16233263,  0.15379616
 18.30047534,  0.09651478,  0.08497623
 18.24961355,  0.09031968,  0.08751932
 17.92091464,  0.11612330,  0.10395427
 19.03054131,  0.11172620,  0.04847293
 17.80329716,  0.14217409,  0.10983514
 18.00603129,  0.10142195,  0.09969844
 17.37544389,  0.13973294,  0.13122781
 17.76941317,  0.11202656,  0.11152934
 17.22048090,  0.14460027,  0.13897595
 16.87218830,  0.17204325,  0.15639058
 17.10200164,  0.16552243,  0.14489992
 17.74824646,  0.11534715,  0.11258768
 16.99970124,  0.15041969,  0.15001494
 18.76625097,  0.06245528,  0.06168745
 17.55932792,  0.12462128,  0.12203360
 18.73028868,  0.08411719,  0.06348557
 17.46561125,  0.12680150,  0.12671944
 18.51022022,  0.07452580,  0.07448899
 18.34431019,  0.08606922,  0.08278449
 17.55054684,  0.12281172,  0.12247266
 18.87903985,  0.05605441,  0.05604801
 18.32669275,  0.08366662,  0.08366536
 17.79863353,  0.11842195,  0.11006832
 19.46283614,  0.02697992,  0.02685819
 18.55209502,  0.09472047,  0.07239525
 17.29110130,  0.14205673,  0.13544493
 17.83224870,  0.11960687,  0.10838756
 16.75632495,  0.17731224,  0.16218375
 17.87159535,  0.10808045,  0.10642023
 17.70093391,  0.11525395,  0.11495330
 19.07437615,  0.04700804,  0.04628119
 18.34936092,  0.08870236,  0.08253195
 18.02805982,  0.12238582,  0.09859701
 17.34084868,  0.14161071,  0.13295757
 18.56488390,  0.07618625,  0.07175580
 20.75987992,  0.07988573, -0.03799400
 16.91950088,  0.16205548,  0.15402496
 17.75389016,  0.11317071,  0.11230549
 16.46483718,  0.17946427,  0.17675814
 16.30188342,  0.18504330,  0.18490583
 16.99118903,  0.15092107,  0.15044055
 17.39490316,  0.13136122,  0.13025484
 17.98741763,  0.10994523,  0.10062912
 17.88297612,  0.11246931,  0.10585119
 17.01595161,  0.15040804,  0.14920242
 17.13181497,  0.17738786,  0.14340925
 17.81633870,  0.12561832,  0.10918307
 18.11463127,  0.11137472,  0.09426844
 18.38238317,  0.08088920,  0.08088084
 18.29542464,  0.08580851,  0.08522877
 18.64460949,  0.10675611,  0.06776953
 18.01463126,  0.10768979,  0.09926844
 18.38481794,  0.08343655,  0.08075910
 17.23502385,  0.14785825,  0.13824881
 18.06770572,  0.10105586,  0.09661471
 18.35885315,  0.09102286,  0.08205734
 18.58001984,  0.08856540,  0.07099901
 17.52368979,  0.13209924,  0.12381551
 18.34687942,  0.09141809,  0.08265603
 16.86988789,  0.16226148,  0.15650561
 17.17605307,  0.14242392,  0.14119735
 17.51228420,  0.12659406,  0.12438579
 16.11676675,  0.19419011,  0.19416166
 16.17382417,  0.19139889,  0.19130879
 18.07981390,  0.10539030,  0.09600931
 18.22719798,  0.09529045,  0.08864010
 19.48254802,  0.04876324,  0.02587260
 17.12223495,  0.14716419,  0.14388825
 16.62715127,  0.16877208,  0.16864244
 17.47510353,  0.12834376,  0.12624482
 17.38370348,  0.13429675,  0.13081483
 17.82125498,  0.11215399,  0.10893725
 17.10855384,  0.14467536,  0.14457231
 19.56308875,  0.02612403,  0.02184556
 16.73096936,  0.17706665,  0.16345153
 19.09619871,  0.09543543,  0.04519006
 17.60316278,  0.12389623,  0.11984186
 17.38468349,  0.15292952,  0.13076583
 18.23545760,  0.11102556,  0.08822712
 15.48661302,  0.22571666,  0.22566935
 17.64517199,  0.12627410,  0.11774140
 17.57164203,  0.14036333,  0.12141790
 17.26843312,  0.14415234,  0.13657834
 18.18186170,  0.10542517,  0.09090691
 18.48126871,  0.10303456,  0.07593656
 17.67498534,  0.12967368,  0.11625073
 17.73088164,  0.11484061,  0.11345592
 17.52976722,  0.12508426,  0.12351164
 17.36659130,  0.14128980,  0.13167043
 17.46167499,  0.16908585,  0.12691625
 15.76124125,  0.21273834,  0.21193794
 18.42091464,  0.08152705,  0.07895427
 17.71620425,  0.12604750,  0.11418979
 17.72930867,  0.11367208,  0.11353457
 17.88559203,  0.10845355,  0.10572040
 18.82032168,  0.07189235,  0.05898392
 17.72635236,  0.11420304,  0.11368238
 17.14970123,  0.14393030,  0.14251494
 17.34824642,  0.13597830,  0.13258768
 16.10816674,  0.19881055,  0.19459166
 17.81736533,  0.10987779,  0.10913173
 19.44226242,  0.02813605,  0.02788688
 20.76176839,  0.07027969, -0.03808842
 18.29961351,  0.08623396,  0.08501932
 18.95359650,  0.09171774,  0.05232018
 18.78866652,  0.10511148,  0.06056667
 17.73272347,  0.12055223,  0.11336383
 17.15252311,  0.14803729,  0.14237384
 16.46517754,  0.17724924,  0.17674112
 16.59819976,  0.18326576,  0.17009001
 18.37066200,  0.08557493,  0.08146690
 18.36522425,  0.08488876,  0.08173879
 17.95841946,  0.11608868,  0.10207903
 18.31795837,  0.08890972,  0.08410208
 17.58639093,  0.14239628,  0.12068045
 18.83780466,  0.06292115,  0.05810977
 18.34358278,  0.08346451,  0.08282086
 18.32883386,  0.08357765,  0.08355831
 18.04419194,  0.09881960,  0.09779040
 17.12527899,  0.14511040,  0.14373605
 17.31030792,  0.14899859,  0.13448460
 17.13220200,  0.14375716,  0.14338990
 18.49815875,  0.07565142,  0.07509206
 17.60256977,  0.12008494,  0.11987151
 17.50329714,  0.13010046,  0.12483514
 18.00675868,  0.10000663,  0.09966207
 18.04687940,  0.10523894,  0.09765603
 18.87489762,  0.06287322,  0.05625512
 19.48511726,  0.02780495,  0.02574414
 17.87066202,  0.10705789,  0.10646690
 18.19667348,  0.09108170,  0.09016633
 17.90256980,  0.10516032,  0.10487151
 16.91385714,  0.16022099,  0.15430714
 18.71403826,  0.08346686,  0.06429809
 18.09123574,  0.10260800,  0.09543821
 17.69713205,  0.12918413,  0.11514340
 17.42728572,  0.13219459,  0.12863571
 17.57951460,  0.12106898,  0.12102427
 18.10762053,  0.11089159,  0.09461897
 18.09589943,  0.09541387,  0.09520503
 19.47699209,  0.02966065,  0.02615040
 19.01920726,  0.04916990,  0.04903964
 18.94324242,  0.05607140,  0.05283788
 17.27202905,  0.13785881,  0.13639855
 16.96882016,  0.15322333,  0.15155899
 17.38224869,  0.13130541,  0.13088757
 16.53220202,  0.17727948,  0.17338990
 16.70846608,  0.16499155,  0.16457670
 19.18969321,  0.05521592,  0.04051534
 18.57130168,  0.08106126,  0.07143492
 18.81060725,  0.06031137,  0.05946964
 18.29246835,  0.10236388,  0.08537658
 17.15389014,  0.14392287,  0.14230549
 17.92557830,  0.10564291,  0.10372108
 19.25641836,  0.03829030,  0.03717908
 18.57043985,  0.09734983,  0.07147801
 17.93126867,  0.10702165,  0.10343657
 19.33661877,  0.03841584,  0.03316906
 17.14897386,  0.14256706,  0.14255131
 16.33292937,  0.18335359,  0.18335353
 16.74845237,  0.16968600,  0.16257738
 16.60311604,  0.17150824,  0.16984420
 18.05020651,  0.11714994,  0.09748967
 18.22608356,  0.09213449,  0.08869582
 19.19383542,  0.04507769,  0.04030823
 19.24927319,  0.05266794,  0.03753634
 17.83395611,  0.11253906,  0.10830219
 18.91022022,  0.05970837,  0.05448899
 18.10170799,  0.12304366,  0.09491460
 17.94537795,  0.10863037,  0.10273110
 19.09003356,  0.07267819,  0.04549832
 18.12967948,  0.13297031,  0.09351603
 18.68520500,  0.06864121,  0.06573975
 18.45432390,  0.10061496,  0.07728380
 16.19649233,  0.19044431,  0.19017538
 18.01219645,  0.12090718,  0.09939018
 16.81522424,  0.18100612,  0.15923879
 16.15504565,  0.20037391,  0.19224772
 17.24230348,  0.14845963,  0.13788483
 17.04465053,  0.15874960,  0.14776747
 17.51535866,  0.12424133,  0.12423207
 16.41654456,  0.17924840,  0.17917277
 18.36108204,  0.08287384,  0.08194590
 17.21372275,  0.13985655,  0.13931386
 16.83566349,  0.15991807,  0.15821683
 15.45272898,  0.23104890,  0.22736355
 17.53134021,  0.12404764,  0.12343299
 17.61385721,  0.12045533,  0.11930714
 17.05227048,  0.17258869,  0.14738648
 19.95052206,  0.06885097,  0.00247390
 20.28871322,  0.01712670, -0.01443566
 20.31420323,  0.06457638, -0.01571016
 19.81001433,  0.01073281,  0.00949928
 16.51162832,  0.17518533,  0.17441858
 15.87022825,  0.20649460,  0.20648859
 17.19071422,  0.15016997,  0.14046429
 16.68036014,  0.16909536,  0.16598199
 18.30098058,  0.12690450,  0.08495097
 19.25987986,  0.17698651,  0.03700601
 19.25509798,  0.03943296,  0.03724510
 17.56326418,  0.12250656,  0.12183679
 17.43049460,  0.13647098,  0.12847527
 17.54713204,  0.12685834,  0.12264340
 19.04815876,  0.12171057,  0.04759206
 18.40248207,  0.13212730,  0.07987590
 18.86467795,  0.06477327,  0.05676610
 18.31527090,  0.11424473,  0.08423645
 18.83584464,  0.07105590,  0.05820777
 19.44731316,  0.03437793,  0.02763434
 19.03618503,  0.05815475,  0.04819075
 16.86740641,  0.15946869,  0.15662968
 16.98725272,  0.15487866,  0.15063736
 17.41017352,  0.12951138,  0.12949132
 17.57236942,  0.14458891,  0.12138153
 20.01172172,  0.02142751, -0.00058609
 18.63793908,  0.06822401,  0.06810305
 18.09465054,  0.09967657,  0.09526747
 16.61936646,  0.16914352,  0.16903168
 16.60534493,  0.18104964,  0.16973275
 16.67120829,  0.16969395,  0.16643959
 18.00723348,  0.12166960,  0.09963833
 16.75632495,  0.16291005,  0.16218375
 18.94606429,  0.05811809,  0.05269679
 18.60432390,  0.07871719,  0.06978381
 16.10705236,  0.20768298,  0.19464738
 15.96838643,  0.20209775,  0.20158068
 17.54699763,  0.13170608,  0.12265012
 18.04687945,  0.12611672,  0.09765603
 18.75013501,  0.09193789,  0.06249325
 18.28199611,  0.10875264,  0.08590019
 18.90787317,  0.05487596,  0.05460634
 19.21133467,  0.13110159,  0.03943327
 18.11770573,  0.10065919,  0.09411471
 16.31799936,  0.18414331,  0.18410003
 16.30140865,  0.18512930,  0.18492957
 16.91064830,  0.15552837,  0.15446759
 17.05166129,  0.14987368,  0.14741694
 16.79144163,  0.17438361,  0.16042792
 16.99858679,  0.15148512,  0.15007066
 17.50846610,  0.12648764,  0.12457670
 17.12814752,  0.17569899,  0.14359262
 18.07519130,  0.10592363,  0.09624044
 18.28126871,  0.10998766,  0.08593656
