%!PS-Adobe-3.0 EPSF-3.0
%%Title: gl2ps_renderer figure
%%Creator: GL2PS 1.4.2, (C) 1999-2020 C. Geuzaine
%%For: Octave
%%CreationDate: Wed Feb  3 00:16:31 2021
%%LanguageLevel: 3
%%DocumentData: Clean7Bit
%%Pages: 1
%%BoundingBox: 0 0 576 432
%%EndComments
%%BeginProlog
/gl2psdict 64 dict def gl2psdict begin
/tryPS3shading false def % set to false to force subdivision
/rThreshold 0.064 def % red component subdivision threshold
/gThreshold 0.034 def % green component subdivision threshold
/bThreshold 0.1 def % blue component subdivision threshold
/BD { bind def } bind def
/C  { setrgbcolor } BD
/G  { 0.082 mul exch 0.6094 mul add exch 0.3086 mul add neg 1.0 add setgray } BD
/W  { setlinewidth } BD
/LC  { setlinecap } BD
/LJ  { setlinejoin } BD
/FC { findfont exch /SH exch def SH scalefont setfont } BD
/SW { dup stringwidth pop } BD
/S  { FC moveto show } BD
/SBC{ FC moveto SW -2 div 0 rmoveto show } BD
/SBR{ FC moveto SW neg 0 rmoveto show } BD
/SCL{ FC moveto 0 SH -2 div rmoveto show } BD
/SCC{ FC moveto SW -2 div SH -2 div rmoveto show } BD
/SCR{ FC moveto SW neg SH -2 div rmoveto show } BD
/STL{ FC moveto 0 SH neg rmoveto show } BD
/STC{ FC moveto SW -2 div SH neg rmoveto show } BD
/STR{ FC moveto SW neg SH neg rmoveto show } BD
/FCT { FC translate 0 0 } BD
/SR  { gsave FCT moveto rotate show grestore } BD
/SRX  { gsave FCT moveto rotate xshow grestore } BD
/SBCR{ gsave FCT moveto rotate SW -2 div 0 rmoveto show grestore } BD
/SBRR{ gsave FCT moveto rotate SW neg 0 rmoveto show grestore } BD
/SCLR{ gsave FCT moveto rotate 0 SH -2 div rmoveto show grestore} BD
/SCCR{ gsave FCT moveto rotate SW -2 div SH -2 div rmoveto show grestore} BD
/SCRR{ gsave FCT moveto rotate SW neg SH -2 div rmoveto show grestore} BD
/STLR{ gsave FCT moveto rotate 0 SH neg rmoveto show grestore } BD
/STCR{ gsave FCT moveto rotate SW -2 div SH neg rmoveto show grestore } BD
/STRR{ gsave FCT moveto rotate SW neg SH neg rmoveto show grestore } BD
/P  { newpath 0.0 360.0 arc closepath fill } BD
/LS { newpath moveto } BD
/L  { lineto } BD
/LE { lineto stroke } BD
/T  { newpath moveto lineto lineto closepath fill } BD
/STshfill {
      /b1 exch def /g1 exch def /r1 exch def /y1 exch def /x1 exch def
      /b2 exch def /g2 exch def /r2 exch def /y2 exch def /x2 exch def
      /b3 exch def /g3 exch def /r3 exch def /y3 exch def /x3 exch def
      gsave << /ShadingType 4 /ColorSpace [/DeviceRGB]
      /DataSource [ 0 x1 y1 r1 g1 b1 0 x2 y2 r2 g2 b2 0 x3 y3 r3 g3 b3 ] >>
      shfill grestore } BD
/Tm { 3 -1 roll 8 -1 roll 13 -1 roll add add 3 div
      3 -1 roll 7 -1 roll 11 -1 roll add add 3 div
      3 -1 roll 6 -1 roll 9 -1 roll add add 3 div C T } BD
/STsplit {
      4 index 15 index add 0.5 mul
      4 index 15 index add 0.5 mul
      4 index 15 index add 0.5 mul
      4 index 15 index add 0.5 mul
      4 index 15 index add 0.5 mul
      5 copy 5 copy 25 15 roll
      9 index 30 index add 0.5 mul
      9 index 30 index add 0.5 mul
      9 index 30 index add 0.5 mul
      9 index 30 index add 0.5 mul
      9 index 30 index add 0.5 mul
      5 copy 5 copy 35 5 roll 25 5 roll 15 5 roll
      4 index 10 index add 0.5 mul
      4 index 10 index add 0.5 mul
      4 index 10 index add 0.5 mul
      4 index 10 index add 0.5 mul
      4 index 10 index add 0.5 mul
      5 copy 5 copy 40 5 roll 25 5 roll 15 5 roll 25 5 roll
      STnoshfill STnoshfill STnoshfill STnoshfill } BD
/STnoshfill {
      2 index 8 index sub abs rThreshold gt
      { STsplit }
      { 1 index 7 index sub abs gThreshold gt
        { STsplit }
        { dup 6 index sub abs bThreshold gt
          { STsplit }
          { 2 index 13 index sub abs rThreshold gt
            { STsplit }
            { 1 index 12 index sub abs gThreshold gt
              { STsplit }
              { dup 11 index sub abs bThreshold gt
                { STsplit }
                { 7 index 13 index sub abs rThreshold gt
                  { STsplit }
                  { 6 index 12 index sub abs gThreshold gt
                    { STsplit }
                    { 5 index 11 index sub abs bThreshold gt
                      { STsplit }
                      { Tm }
                      ifelse }
                    ifelse }
                  ifelse }
                ifelse }
              ifelse }
            ifelse }
          ifelse }
        ifelse }
      ifelse } BD
tryPS3shading
{ /shfill where
  { /ST { STshfill } BD }
  { /ST { STnoshfill } BD }
  ifelse }
{ /ST { STnoshfill } BD }
ifelse
end
%%EndProlog
%%BeginSetup
/DeviceRGB setcolorspace
gl2psdict begin
%%EndSetup
%%Page: 1 1
%%BeginPageSetup
%%EndPageSetup
mark
gsave
1.0 1.0 scale
1 1 1 C
newpath 0 0 moveto 576 0 lineto 576 432 lineto 0 432 lineto
closepath fill
gsave
1.0 1.0 scale
1 1 1 C
newpath 0 0 moveto 576 0 lineto 576 432 lineto 0 432 lineto
closepath fill
newpath 0 0 moveto 576 0 lineto 576 432 lineto 0 432 lineto
closepath clip
1 1 1 C
266.804 393.161 266.804 248.721 74.8799 248.721 T
74.8799 393.161 266.804 393.161 74.8799 248.721 T
0.5 W
[16 0] 0 setdash
0.85 0.85 0.85 C
74.8799 248.721 LS
74.8799 393.161 LE
113.265 248.721 LS
113.265 393.161 LE
151.649 248.721 LS
151.649 393.161 LE
190.034 248.721 LS
190.034 393.161 LE
228.419 248.721 LS
228.419 393.161 LE
266.804 248.721 LS
266.804 393.161 LE
[] 0 setdash
0.15 0.15 0.15 C
74.8799 248.721 LS
74.8799 250.646 LE
74.8799 393.161 LS
74.8799 391.236 LE
113.265 248.721 LS
113.265 250.646 LE
113.265 393.161 LS
113.265 391.236 LE
151.649 248.721 LS
151.649 250.646 LE
151.649 393.161 LS
151.649 391.236 LE
190.034 248.721 LS
190.034 250.646 LE
190.034 393.161 LS
190.034 391.236 LE
228.419 248.721 LS
228.419 250.646 LE
228.419 393.161 LS
228.419 391.236 LE
266.804 248.721 LS
266.804 250.646 LE
266.804 393.161 LS
266.804 391.236 LE
gsave
0.14902 0.14902 0.14902 C
(0) [10] 0 71.88 233.198 10 /Helvetica SRX
grestore

gsave
0.14902 0.14902 0.14902 C
(100) [6 6 10] 0 104.265 233.198 10 /Helvetica SRX
grestore

gsave
0.14902 0.14902 0.14902 C
(200) [6 6 10] 0 142.649 233.198 10 /Helvetica SRX
grestore

gsave
0.14902 0.14902 0.14902 C
(300) [6 6 10] 0 181.034 233.198 10 /Helvetica SRX
grestore

gsave
0.14902 0.14902 0.14902 C
(400) [6 6 10] 0 219.419 233.198 10 /Helvetica SRX
grestore

gsave
0.14902 0.14902 0.14902 C
(500) [6 6 10] 0 257.804 233.198 10 /Helvetica SRX
grestore

[16 0] 0 setdash
0.85 0.85 0.85 C
74.8799 248.721 LS
266.804 248.721 LE
74.8799 272.794 LS
266.804 272.794 LE
74.8799 296.868 LS
266.804 296.868 LE
74.8799 320.941 LS
266.804 320.941 LE
74.8799 345.015 LS
266.804 345.015 LE
74.8799 369.088 LS
266.804 369.088 LE
74.8799 393.161 LS
266.804 393.161 LE
[] 0 setdash
0.15 0.15 0.15 C
74.8799 248.721 LS
76.7983 248.721 LE
266.804 248.721 LS
264.885 248.721 LE
74.8799 272.794 LS
76.7983 272.794 LE
266.804 272.794 LS
264.885 272.794 LE
74.8799 296.868 LS
76.7983 296.868 LE
266.804 296.868 LS
264.885 296.868 LE
74.8799 320.941 LS
76.7983 320.941 LE
266.804 320.941 LS
264.885 320.941 LE
74.8799 345.015 LS
76.7983 345.015 LE
266.804 345.015 LS
264.885 345.015 LE
74.8799 369.088 LS
76.7983 369.088 LE
266.804 369.088 LS
264.885 369.088 LE
74.8799 393.161 LS
76.7983 393.161 LE
266.804 393.161 LS
264.885 393.161 LE
gsave
0.14902 0.14902 0.14902 C
(0) [10] 0 63.882 244.721 10 /Helvetica SRX
grestore

gsave
0.14902 0.14902 0.14902 C
(20) [6 10] 0 57.882 268.795 10 /Helvetica SRX
grestore

gsave
0.14902 0.14902 0.14902 C
(40) [6 10] 0 57.882 292.868 10 /Helvetica SRX
grestore

gsave
0.14902 0.14902 0.14902 C
(60) [6 10] 0 57.882 316.941 10 /Helvetica SRX
grestore

gsave
0.14902 0.14902 0.14902 C
(80) [6 10] 0 57.882 341.015 10 /Helvetica SRX
grestore

gsave
0.14902 0.14902 0.14902 C
(100) [6 6 10] 0 51.882 365.088 10 /Helvetica SRX
grestore

gsave
0.14902 0.14902 0.14902 C
(120) [6 6 10] 0 51.882 389.161 10 /Helvetica SRX
grestore

2 LC
[16 0] 0 setdash
74.8799 248.721 LS
266.804 248.721 LE
74.8799 393.161 LS
266.804 393.161 LE
74.8799 248.721 LS
74.8799 393.161 LE
266.804 248.721 LS
266.804 393.161 LE
gsave
0.14902 0.14902 0.14902 C
(E in E) [7 3 2 6 3 10] 90 40.882 304.441 11 /Helvetica SRX
(0) [10] 90 46.882 332.441 9 /Helvetica SRX
grestore

gsave
0.14902 0.14902 0.14902 C
(mu) [9 10] 0 163.342 221.198 11 /Helvetica SRX
grestore

4 W
1 LC
1 LJ
[] 0 setdash
0 0 0 C
79.2637 249.849 LS
78.8677 248.113 L
77.7578 246.721 L
76.1538 245.949 L
74.3735 245.949 L
72.77 246.721 L
71.6602 248.113 L
71.2637 249.849 L
71.6602 251.584 L
72.77 252.976 L
74.3735 253.748 L
76.1538 253.748 L
77.7578 252.976 L
78.8677 251.584 L
79.2637 249.849 LE
79.6475 250.963 LS
79.2515 249.228 L
78.1416 247.836 L
76.5376 247.064 L
74.7578 247.064 L
73.1538 247.836 L
72.0439 249.228 L
71.6475 250.963 L
72.0439 252.699 L
73.1538 254.091 L
74.7578 254.863 L
76.5376 254.863 L
78.1416 254.091 L
79.2515 252.699 L
79.6475 250.963 LE
80.7993 254.332 LS
80.4033 252.596 L
79.293 251.204 L
77.6895 250.432 L
75.9092 250.432 L
74.3052 251.204 L
73.1953 252.596 L
72.7993 254.332 L
73.1953 256.067 L
74.3052 257.458 L
75.9092 258.231 L
77.6895 258.231 L
79.293 257.458 L
80.4033 256.067 L
80.7993 254.332 LE
82.7183 259.779 LS
82.3223 258.044 L
81.2124 256.652 L
79.6084 255.879 L
77.8286 255.879 L
76.2246 256.652 L
75.1147 258.044 L
74.7183 259.779 L
75.1147 261.515 L
76.2246 262.907 L
77.8286 263.679 L
79.6084 263.679 L
81.2124 262.907 L
82.3223 261.515 L
82.7183 259.779 LE
86.5571 270.174 LS
86.1606 268.438 L
85.0508 267.046 L
83.4473 266.274 L
81.667 266.274 L
80.063 267.046 L
78.9531 268.438 L
78.5571 270.174 L
78.9531 271.909 L
80.063 273.301 L
81.667 274.073 L
83.4473 274.073 L
85.0508 273.301 L
86.1606 271.909 L
86.5571 270.174 LE
98.0723 298.518 LS
97.6763 296.783 L
96.5664 295.391 L
94.9624 294.618 L
93.1821 294.618 L
91.5786 295.391 L
90.4683 296.783 L
90.0723 298.518 L
90.4683 300.253 L
91.5786 301.646 L
93.1821 302.418 L
94.9624 302.418 L
96.5664 301.646 L
97.6763 300.253 L
98.0723 298.518 LE
117.265 334.85 LS
116.869 333.114 L
115.759 331.723 L
114.155 330.95 L
112.375 330.95 L
110.771 331.723 L
109.661 333.114 L
109.265 334.85 L
109.661 336.585 L
110.771 337.977 L
112.375 338.75 L
114.155 338.75 L
115.759 337.977 L
116.869 336.585 L
117.265 334.85 LE
155.649 375.889 LS
155.253 374.153 L
154.144 372.761 L
152.54 371.989 L
150.759 371.989 L
149.155 372.761 L
148.045 374.153 L
147.649 375.889 L
148.045 377.624 L
149.155 379.016 L
150.759 379.788 L
152.54 379.788 L
154.144 379.016 L
155.253 377.624 L
155.649 375.889 LE
194.034 390.332 LS
193.638 388.597 L
192.528 387.205 L
190.924 386.433 L
189.144 386.433 L
187.54 387.205 L
186.43 388.597 L
186.034 390.332 L
186.43 392.067 L
187.54 393.459 L
189.144 394.232 L
190.924 394.232 L
192.528 393.459 L
193.638 392.067 L
194.034 390.332 LE
232.419 389.466 LS
232.023 387.73 L
230.913 386.338 L
229.309 385.566 L
227.529 385.566 L
225.925 386.338 L
224.815 387.73 L
224.419 389.466 L
224.815 391.201 L
225.925 392.593 L
227.529 393.365 L
229.309 393.365 L
230.913 392.593 L
232.023 391.201 L
232.419 389.466 LE
270.804 387.11 LS
270.408 385.375 L
269.298 383.983 L
267.694 383.21 L
265.914 383.21 L
264.31 383.983 L
263.2 385.375 L
262.804 387.11 L
263.2 388.846 L
264.31 390.237 L
265.914 391.01 L
267.694 391.01 L
269.298 390.237 L
270.408 388.846 L
270.804 387.11 LE
grestore
gsave
1.0 1.0 scale
newpath 0 0 moveto 576 0 lineto 576 432 lineto 0 432 lineto
closepath clip
1 1 1 C
521.28 393.161 521.28 248.721 329.356 248.721 T
329.356 393.161 521.28 393.161 329.356 248.721 T
0.5 W
[16 0] 0 setdash
0.85 0.85 0.85 C
329.356 248.721 LS
329.356 393.161 LE
367.741 248.721 LS
367.741 393.161 LE
406.126 248.721 LS
406.126 393.161 LE
444.511 248.721 LS
444.511 393.161 LE
482.896 248.721 LS
482.896 393.161 LE
521.28 248.721 LS
521.28 393.161 LE
[] 0 setdash
0.15 0.15 0.15 C
329.356 248.721 LS
329.356 250.646 LE
329.356 393.161 LS
329.356 391.236 LE
367.741 248.721 LS
367.741 250.646 LE
367.741 393.161 LS
367.741 391.236 LE
406.126 248.721 LS
406.126 250.646 LE
406.126 393.161 LS
406.126 391.236 LE
444.511 248.721 LS
444.511 250.646 LE
444.511 393.161 LS
444.511 391.236 LE
482.896 248.721 LS
482.896 250.646 LE
482.896 393.161 LS
482.896 391.236 LE
521.28 248.721 LS
521.28 250.646 LE
521.28 393.161 LS
521.28 391.236 LE
gsave
0.14902 0.14902 0.14902 C
(0) [10] 0 326.356 233.198 10 /Helvetica SRX
grestore

gsave
0.14902 0.14902 0.14902 C
(100) [6 6 10] 0 358.741 233.198 10 /Helvetica SRX
grestore

gsave
0.14902 0.14902 0.14902 C
(200) [6 6 10] 0 397.126 233.198 10 /Helvetica SRX
grestore

gsave
0.14902 0.14902 0.14902 C
(300) [6 6 10] 0 435.511 233.198 10 /Helvetica SRX
grestore

gsave
0.14902 0.14902 0.14902 C
(400) [6 6 10] 0 473.895 233.198 10 /Helvetica SRX
grestore

gsave
0.14902 0.14902 0.14902 C
(500) [6 6 10] 0 512.28 233.198 10 /Helvetica SRX
grestore

[16 0] 0 setdash
0.85 0.85 0.85 C
329.356 248.721 LS
521.28 248.721 LE
329.356 284.832 LS
521.28 284.832 LE
329.356 320.941 LS
521.28 320.941 LE
329.356 357.051 LS
521.28 357.051 LE
329.356 393.161 LS
521.28 393.161 LE
[] 0 setdash
0.15 0.15 0.15 C
329.356 248.721 LS
331.275 248.721 LE
521.28 248.721 LS
519.361 248.721 LE
329.356 284.832 LS
331.275 284.832 LE
521.28 284.832 LS
519.361 284.832 LE
329.356 320.941 LS
331.275 320.941 LE
521.28 320.941 LS
519.361 320.941 LE
329.356 357.051 LS
331.275 357.051 LE
521.28 357.051 LS
519.361 357.051 LE
329.356 393.161 LS
331.275 393.161 LE
521.28 393.161 LS
519.361 393.161 LE
gsave
0.14902 0.14902 0.14902 C
(0) [10] 0 318.358 244.721 10 /Helvetica SRX
grestore

gsave
0.14902 0.14902 0.14902 C
(0.2) [6 3 10] 0 309.358 280.831 10 /Helvetica SRX
grestore

gsave
0.14902 0.14902 0.14902 C
(0.4) [6 3 10] 0 309.358 316.941 10 /Helvetica SRX
grestore

gsave
0.14902 0.14902 0.14902 C
(0.6) [6 3 10] 0 309.358 353.051 10 /Helvetica SRX
grestore

gsave
0.14902 0.14902 0.14902 C
(0.8) [6 3 10] 0 309.358 389.161 10 /Helvetica SRX
grestore

2 LC
[16 0] 0 setdash
329.356 248.721 LS
521.28 248.721 LE
329.356 393.161 LS
521.28 393.161 LE
329.356 248.721 LS
329.356 393.161 LE
521.28 248.721 LS
521.28 393.161 LE
gsave
0.14902 0.14902 0.14902 C
(L in L) [6 3 2 6 3 10] 90 298.358 305.441 11 /Helvetica SRX
(0) [10] 90 304.358 331.441 9 /Helvetica SRX
grestore

gsave
0.14902 0.14902 0.14902 C
(mu) [9 10] 0 417.818 221.198 11 /Helvetica SRX
grestore

4 W
1 LC
1 LJ
[] 0 setdash
0 0 0 C
333.74 264.098 LS
333.344 262.362 L
332.234 260.97 L
330.63 260.198 L
328.85 260.198 L
327.246 260.97 L
326.136 262.362 L
325.74 264.098 L
326.136 265.833 L
327.246 267.225 L
328.85 267.997 L
330.63 267.997 L
332.234 267.225 L
333.344 265.833 L
333.74 264.098 LE
334.124 264.817 LS
333.728 263.082 L
332.618 261.69 L
331.014 260.917 L
329.234 260.917 L
327.63 261.69 L
326.52 263.082 L
326.124 264.817 L
326.52 266.553 L
327.63 267.944 L
329.234 268.717 L
331.014 268.717 L
332.618 267.944 L
333.728 266.553 L
334.124 264.817 LE
335.275 264.765 LS
334.879 263.029 L
333.77 261.637 L
332.166 260.865 L
330.386 260.865 L
328.782 261.637 L
327.672 263.029 L
327.275 264.765 L
327.672 266.5 L
328.782 267.892 L
330.386 268.665 L
332.166 268.665 L
333.77 267.892 L
334.879 266.5 L
335.275 264.765 LE
337.195 266.458 LS
336.799 264.723 L
335.689 263.331 L
334.085 262.558 L
332.305 262.558 L
330.701 263.331 L
329.591 264.723 L
329.195 266.458 L
329.591 268.193 L
330.701 269.585 L
332.305 270.358 L
334.085 270.358 L
335.689 269.585 L
336.799 268.193 L
337.195 266.458 LE
341.033 270.542 LS
340.637 268.807 L
339.527 267.415 L
337.923 266.643 L
336.143 266.643 L
334.54 267.415 L
333.429 268.807 L
333.033 270.542 L
333.429 272.278 L
334.54 273.669 L
336.143 274.442 L
337.923 274.442 L
339.527 273.669 L
340.637 272.278 L
341.033 270.542 LE
352.549 281.213 LS
352.152 279.478 L
351.042 278.086 L
349.439 277.313 L
347.659 277.313 L
346.055 278.086 L
344.945 279.478 L
344.549 281.213 L
344.945 282.949 L
346.055 284.34 L
347.659 285.113 L
349.439 285.113 L
351.042 284.34 L
352.152 282.949 L
352.549 281.213 LE
371.741 300.924 LS
371.345 299.188 L
370.235 297.797 L
368.631 297.024 L
366.851 297.024 L
365.247 297.797 L
364.137 299.188 L
363.741 300.924 L
364.137 302.66 L
365.247 304.051 L
366.851 304.824 L
368.631 304.824 L
370.235 304.051 L
371.345 302.66 L
371.741 300.924 LE
410.126 334.391 LS
409.729 332.655 L
408.62 331.264 L
407.016 330.491 L
405.236 330.491 L
403.632 331.264 L
402.522 332.655 L
402.126 334.391 L
402.522 336.126 L
403.632 337.518 L
405.236 338.291 L
407.016 338.291 L
408.62 337.518 L
409.729 336.126 L
410.126 334.391 LE
448.511 358.768 LS
448.114 357.033 L
447.004 355.641 L
445.4 354.868 L
443.621 354.868 L
442.017 355.641 L
440.907 357.033 L
440.511 358.768 L
440.907 360.503 L
442.017 361.896 L
443.621 362.668 L
445.4 362.668 L
447.004 361.896 L
448.114 360.503 L
448.511 358.768 LE
486.896 376.693 LS
486.499 374.958 L
485.389 373.566 L
483.785 372.793 L
482.005 372.793 L
480.401 373.566 L
479.292 374.958 L
478.896 376.693 L
479.292 378.429 L
480.401 379.82 L
482.005 380.593 L
483.785 380.593 L
485.389 379.82 L
486.499 378.429 L
486.896 376.693 LE
525.28 387.94 LS
524.884 386.205 L
523.774 384.813 L
522.17 384.041 L
520.39 384.041 L
518.786 384.813 L
517.676 386.205 L
517.28 387.94 L
517.676 389.676 L
518.786 391.067 L
520.39 391.84 L
522.17 391.84 L
523.774 391.067 L
524.884 389.676 L
525.28 387.94 LE
grestore
gsave
1.0 1.0 scale
newpath 0 0 moveto 576 0 lineto 576 432 lineto 0 432 lineto
closepath clip
1 1 1 C
266.804 191.96 266.804 47.52 74.8799 47.52 T
74.8799 191.96 266.804 191.96 74.8799 47.52 T
0.5 W
[16 0] 0 setdash
0.85 0.85 0.85 C
74.8799 47.52 LS
74.8799 191.96 LE
113.265 47.52 LS
113.265 191.96 LE
151.649 47.52 LS
151.649 191.96 LE
190.034 47.52 LS
190.034 191.96 LE
228.419 47.52 LS
228.419 191.96 LE
266.804 47.52 LS
266.804 191.96 LE
[] 0 setdash
0.15 0.15 0.15 C
74.8799 47.52 LS
74.8799 49.4453 LE
74.8799 191.96 LS
74.8799 190.035 LE
113.265 47.52 LS
113.265 49.4453 LE
113.265 191.96 LS
113.265 190.035 LE
151.649 47.52 LS
151.649 49.4453 LE
151.649 191.96 LS
151.649 190.035 LE
190.034 47.52 LS
190.034 49.4453 LE
190.034 191.96 LS
190.034 190.035 LE
228.419 47.52 LS
228.419 49.4453 LE
228.419 191.96 LS
228.419 190.035 LE
266.804 47.52 LS
266.804 49.4453 LE
266.804 191.96 LS
266.804 190.035 LE
gsave
0.14902 0.14902 0.14902 C
(0) [10] 0 71.88 31.9971 10 /Helvetica SRX
grestore

gsave
0.14902 0.14902 0.14902 C
(100) [6 6 10] 0 104.265 31.9971 10 /Helvetica SRX
grestore

gsave
0.14902 0.14902 0.14902 C
(200) [6 6 10] 0 142.649 31.9971 10 /Helvetica SRX
grestore

gsave
0.14902 0.14902 0.14902 C
(300) [6 6 10] 0 181.034 31.9971 10 /Helvetica SRX
grestore

gsave
0.14902 0.14902 0.14902 C
(400) [6 6 10] 0 219.419 31.9971 10 /Helvetica SRX
grestore

gsave
0.14902 0.14902 0.14902 C
(500) [6 6 10] 0 257.804 31.9971 10 /Helvetica SRX
grestore

[16 0] 0 setdash
0.85 0.85 0.85 C
74.8799 47.52 LS
266.804 47.52 LE
74.8799 83.6299 LS
266.804 83.6299 LE
74.8799 119.74 LS
266.804 119.74 LE
74.8799 155.85 LS
266.804 155.85 LE
74.8799 191.96 LS
266.804 191.96 LE
[] 0 setdash
0.15 0.15 0.15 C
74.8799 47.52 LS
76.7983 47.52 LE
266.804 47.52 LS
264.885 47.52 LE
74.8799 83.6299 LS
76.7983 83.6299 LE
266.804 83.6299 LS
264.885 83.6299 LE
74.8799 119.74 LS
76.7983 119.74 LE
266.804 119.74 LS
264.885 119.74 LE
74.8799 155.85 LS
76.7983 155.85 LE
266.804 155.85 LS
264.885 155.85 LE
74.8799 191.96 LS
76.7983 191.96 LE
266.804 191.96 LS
264.885 191.96 LE
gsave
0.14902 0.14902 0.14902 C
(0) [10] 0 63.882 43.52 10 /Helvetica SRX
grestore

gsave
0.14902 0.14902 0.14902 C
(0.2) [6 3 10] 0 54.882 79.63 10 /Helvetica SRX
grestore

gsave
0.14902 0.14902 0.14902 C
(0.4) [6 3 10] 0 54.882 115.74 10 /Helvetica SRX
grestore

gsave
0.14902 0.14902 0.14902 C
(0.6) [6 3 10] 0 54.882 151.85 10 /Helvetica SRX
grestore

gsave
0.14902 0.14902 0.14902 C
(0.8) [6 3 10] 0 54.882 187.96 10 /Helvetica SRX
grestore

2 LC
[16 0] 0 setdash
74.8799 47.52 LS
266.804 47.52 LE
74.8799 191.96 LS
266.804 191.96 LE
74.8799 47.52 LS
74.8799 191.96 LE
266.804 47.52 LS
266.804 191.96 LE
gsave
0.14902 0.14902 0.14902 C
(L) [10] 90 43.882 102.24 11 /Helvetica SRX
(z) [10] 90 49.882 108.24 9 /Helvetica SRX
( in L) [3 2 6 3 10] 90 43.882 112.24 11 /Helvetica SRX
(0) [10] 90 49.882 132.24 9 /Helvetica SRX
grestore

gsave
0.14902 0.14902 0.14902 C
(mu) [9 10] 0 163.342 19.9971 11 /Helvetica SRX
grestore

4 W
1 LC
1 LJ
[] 0 setdash
0 0 0 C
79.2637 58.9814 LS
78.8677 57.2461 L
77.7578 55.854 L
76.1538 55.082 L
74.3735 55.082 L
72.77 55.854 L
71.6602 57.2461 L
71.2637 58.9814 L
71.6602 60.7173 L
72.77 62.1089 L
74.3735 62.8813 L
76.1538 62.8813 L
77.7578 62.1089 L
78.8677 60.7173 L
79.2637 58.9814 LE
79.6475 59.9048 LS
79.2515 58.1689 L
78.1416 56.7773 L
76.5376 56.0049 L
74.7578 56.0049 L
73.1538 56.7773 L
72.0439 58.1689 L
71.6475 59.9048 L
72.0439 61.6401 L
73.1538 63.0317 L
74.7578 63.8042 L
76.5376 63.8042 L
78.1416 63.0317 L
79.2515 61.6401 L
79.6475 59.9048 LE
80.7993 59.7705 LS
80.4033 58.0347 L
79.293 56.6431 L
77.6895 55.8706 L
75.9092 55.8706 L
74.3052 56.6431 L
73.1953 58.0347 L
72.7993 59.7705 L
73.1953 61.5059 L
74.3052 62.8975 L
75.9092 63.6699 L
77.6895 63.6699 L
79.293 62.8975 L
80.4033 61.5059 L
80.7993 59.7705 LE
82.7183 62.2007 LS
82.3223 60.4648 L
81.2124 59.0732 L
79.6084 58.3008 L
77.8286 58.3008 L
76.2246 59.0732 L
75.1147 60.4648 L
74.7183 62.2007 L
75.1147 63.936 L
76.2246 65.3276 L
77.8286 66.1001 L
79.6084 66.1001 L
81.2124 65.3276 L
82.3223 63.936 L
82.7183 62.2007 LE
86.5571 67.1768 LS
86.1606 65.4409 L
85.0508 64.0493 L
83.4473 63.2769 L
81.667 63.2769 L
80.063 64.0493 L
78.9531 65.4409 L
78.5571 67.1768 L
78.9531 68.9121 L
80.063 70.3042 L
81.667 71.0762 L
83.4473 71.0762 L
85.0508 70.3042 L
86.1606 68.9121 L
86.5571 67.1768 LE
98.0723 78.6797 LS
97.6763 76.9443 L
96.5664 75.5522 L
94.9624 74.7798 L
93.1821 74.7798 L
91.5786 75.5522 L
90.4683 76.9443 L
90.0723 78.6797 L
90.4683 80.415 L
91.5786 81.8071 L
93.1821 82.5791 L
94.9624 82.5791 L
96.5664 81.8071 L
97.6763 80.415 L
98.0723 78.6797 LE
117.265 98.877 LS
116.869 97.1416 L
115.759 95.75 L
114.155 94.9775 L
112.375 94.9775 L
110.771 95.75 L
109.661 97.1416 L
109.265 98.877 L
109.661 100.613 L
110.771 102.004 L
112.375 102.777 L
114.155 102.777 L
115.759 102.004 L
116.869 100.613 L
117.265 98.877 LE
155.649 132.694 LS
155.253 130.959 L
154.144 129.567 L
152.54 128.795 L
150.759 128.795 L
149.155 129.567 L
148.045 130.959 L
147.649 132.694 L
148.045 134.43 L
149.155 135.822 L
150.759 136.594 L
152.54 136.594 L
154.144 135.822 L
155.253 134.43 L
155.649 132.694 LE
194.034 157.265 LS
193.638 155.529 L
192.528 154.137 L
190.924 153.365 L
189.144 153.365 L
187.54 154.137 L
186.43 155.529 L
186.034 157.265 L
186.43 159 L
187.54 160.392 L
189.144 161.165 L
190.924 161.165 L
192.528 160.392 L
193.638 159 L
194.034 157.265 LE
232.419 175.291 LS
232.023 173.555 L
230.913 172.164 L
229.309 171.391 L
227.529 171.391 L
225.925 172.164 L
224.815 173.555 L
224.419 175.291 L
224.815 177.026 L
225.925 178.418 L
227.529 179.19 L
229.309 179.19 L
230.913 178.418 L
232.023 177.026 L
232.419 175.291 LE
270.804 186.553 LS
270.408 184.818 L
269.298 183.426 L
267.694 182.654 L
265.914 182.654 L
264.31 183.426 L
263.2 184.818 L
262.804 186.553 L
263.2 188.289 L
264.31 189.681 L
265.914 190.453 L
267.694 190.453 L
269.298 189.681 L
270.408 188.289 L
270.804 186.553 LE
grestore
gsave
1.0 1.0 scale
newpath 0 0 moveto 576 0 lineto 576 432 lineto 0 432 lineto
closepath clip
1 1 1 C
521.28 191.96 521.28 47.52 329.356 47.52 T
329.356 191.96 521.28 191.96 329.356 47.52 T
0.5 W
[16 0] 0 setdash
0.85 0.85 0.85 C
329.356 47.52 LS
329.356 191.96 LE
367.741 47.52 LS
367.741 191.96 LE
406.126 47.52 LS
406.126 191.96 LE
444.511 47.52 LS
444.511 191.96 LE
482.896 47.52 LS
482.896 191.96 LE
521.28 47.52 LS
521.28 191.96 LE
[] 0 setdash
0.15 0.15 0.15 C
329.356 47.52 LS
329.356 49.4453 LE
329.356 191.96 LS
329.356 190.035 LE
367.741 47.52 LS
367.741 49.4453 LE
367.741 191.96 LS
367.741 190.035 LE
406.126 47.52 LS
406.126 49.4453 LE
406.126 191.96 LS
406.126 190.035 LE
444.511 47.52 LS
444.511 49.4453 LE
444.511 191.96 LS
444.511 190.035 LE
482.896 47.52 LS
482.896 49.4453 LE
482.896 191.96 LS
482.896 190.035 LE
521.28 47.52 LS
521.28 49.4453 LE
521.28 191.96 LS
521.28 190.035 LE
gsave
0.14902 0.14902 0.14902 C
(0) [10] 0 326.356 31.9971 10 /Helvetica SRX
grestore

gsave
0.14902 0.14902 0.14902 C
(100) [6 6 10] 0 358.741 31.9971 10 /Helvetica SRX
grestore

gsave
0.14902 0.14902 0.14902 C
(200) [6 6 10] 0 397.126 31.9971 10 /Helvetica SRX
grestore

gsave
0.14902 0.14902 0.14902 C
(300) [6 6 10] 0 435.511 31.9971 10 /Helvetica SRX
grestore

gsave
0.14902 0.14902 0.14902 C
(400) [6 6 10] 0 473.895 31.9971 10 /Helvetica SRX
grestore

gsave
0.14902 0.14902 0.14902 C
(500) [6 6 10] 0 512.28 31.9971 10 /Helvetica SRX
grestore

[16 0] 0 setdash
0.85 0.85 0.85 C
329.356 47.52 LS
521.28 47.52 LE
329.356 71.5933 LS
521.28 71.5933 LE
329.356 95.6665 LS
521.28 95.6665 LE
329.356 119.74 LS
521.28 119.74 LE
329.356 143.813 LS
521.28 143.813 LE
329.356 167.887 LS
521.28 167.887 LE
329.356 191.96 LS
521.28 191.96 LE
[] 0 setdash
0.15 0.15 0.15 C
329.356 47.52 LS
331.275 47.52 LE
521.28 47.52 LS
519.361 47.52 LE
329.356 71.5933 LS
331.275 71.5933 LE
521.28 71.5933 LS
519.361 71.5933 LE
329.356 95.6665 LS
331.275 95.6665 LE
521.28 95.6665 LS
519.361 95.6665 LE
329.356 119.74 LS
331.275 119.74 LE
521.28 119.74 LS
519.361 119.74 LE
329.356 143.813 LS
331.275 143.813 LE
521.28 143.813 LS
519.361 143.813 LE
329.356 167.887 LS
331.275 167.887 LE
521.28 167.887 LS
519.361 167.887 LE
329.356 191.96 LS
331.275 191.96 LE
521.28 191.96 LS
519.361 191.96 LE
gsave
0.14902 0.14902 0.14902 C
(0) [10] 0 318.358 43.52 10 /Helvetica SRX
grestore

gsave
0.14902 0.14902 0.14902 C
(20) [6 10] 0 312.358 67.5933 10 /Helvetica SRX
grestore

gsave
0.14902 0.14902 0.14902 C
(40) [6 10] 0 312.358 91.6667 10 /Helvetica SRX
grestore

gsave
0.14902 0.14902 0.14902 C
(60) [6 10] 0 312.358 115.74 10 /Helvetica SRX
grestore

gsave
0.14902 0.14902 0.14902 C
(80) [6 10] 0 312.358 139.813 10 /Helvetica SRX
grestore

gsave
0.14902 0.14902 0.14902 C
(100) [6 6 10] 0 306.358 163.887 10 /Helvetica SRX
grestore

gsave
0.14902 0.14902 0.14902 C
(120) [6 6 10] 0 306.358 187.96 10 /Helvetica SRX
grestore

2 LC
[16 0] 0 setdash
329.356 47.52 LS
521.28 47.52 LE
329.356 191.96 LS
521.28 191.96 LE
329.356 47.52 LS
329.356 191.96 LE
521.28 47.52 LS
521.28 191.96 LE
gsave
0.14902 0.14902 0.14902 C
(C in E) [8 3 2 6 3 10] 90 295.358 102.74 11 /Helvetica SRX
(0) [10] 90 301.358 131.74 9 /Helvetica SRX
(2) [10] 90 289.358 131.74 9 /Helvetica SRX
grestore

gsave
0.14902 0.14902 0.14902 C
(mu) [9 10] 0 417.818 19.9971 11 /Helvetica SRX
grestore

4 W
1 LC
1 LJ
[] 0 setdash
0 0 0 C
333.74 47.5229 LS
333.344 45.7871 L
332.234 44.3955 L
330.63 43.623 L
328.85 43.623 L
327.246 44.3955 L
326.136 45.7871 L
325.74 47.5229 L
326.136 49.2583 L
327.246 50.6499 L
328.85 51.4224 L
330.63 51.4224 L
332.234 50.6499 L
333.344 49.2583 L
333.74 47.5229 LE
334.124 47.5303 LS
333.728 45.7949 L
332.618 44.4028 L
331.014 43.6304 L
329.234 43.6304 L
327.63 44.4028 L
326.52 45.7949 L
326.124 47.5303 L
326.52 49.2656 L
327.63 50.6577 L
329.234 51.4302 L
331.014 51.4302 L
332.618 50.6577 L
333.728 49.2656 L
334.124 47.5303 LE
335.275 47.5913 LS
334.879 45.8555 L
333.77 44.4639 L
332.166 43.6914 L
330.386 43.6914 L
328.782 44.4639 L
327.672 45.8555 L
327.275 47.5913 L
327.672 49.3267 L
328.782 50.7183 L
330.386 51.4907 L
332.166 51.4907 L
333.77 50.7183 L
334.879 49.3267 L
335.275 47.5913 LE
337.195 47.7856 LS
336.799 46.0503 L
335.689 44.6582 L
334.085 43.8862 L
332.305 43.8862 L
330.701 44.6582 L
329.591 46.0503 L
329.195 47.7856 L
329.591 49.5215 L
330.701 50.9131 L
332.305 51.6855 L
334.085 51.6855 L
335.689 50.9131 L
336.799 49.5215 L
337.195 47.7856 LE
341.033 48.6807 LS
340.637 46.9448 L
339.527 45.5532 L
337.923 44.7808 L
336.143 44.7808 L
334.54 45.5532 L
333.429 46.9448 L
333.033 48.6807 L
333.429 50.416 L
334.54 51.8081 L
336.143 52.5801 L
337.923 52.5801 L
339.527 51.8081 L
340.637 50.416 L
341.033 48.6807 LE
352.549 54.0464 LS
352.152 52.311 L
351.042 50.9194 L
349.439 50.147 L
347.659 50.147 L
346.055 50.9194 L
344.945 52.311 L
344.549 54.0464 L
344.945 55.7822 L
346.055 57.1738 L
347.659 57.9463 L
349.439 57.9463 L
351.042 57.1738 L
352.152 55.7822 L
352.549 54.0464 LE
371.741 71.9902 LS
371.345 70.2549 L
370.235 68.8628 L
368.631 68.0908 L
366.851 68.0908 L
365.247 68.8628 L
364.137 70.2549 L
363.741 71.9902 L
364.137 73.7261 L
365.247 75.1177 L
366.851 75.8901 L
368.631 75.8901 L
370.235 75.1177 L
371.345 73.7261 L
371.741 71.9902 LE
410.126 132.634 LS
409.729 130.898 L
408.62 129.507 L
407.016 128.734 L
405.236 128.734 L
403.632 129.507 L
402.522 130.898 L
402.126 132.634 L
402.522 134.37 L
403.632 135.761 L
405.236 136.534 L
407.016 136.534 L
408.62 135.761 L
409.729 134.37 L
410.126 132.634 LE
448.511 173.089 LS
448.114 171.353 L
447.004 169.961 L
445.4 169.189 L
443.621 169.189 L
442.017 169.961 L
440.907 171.353 L
440.511 173.089 L
440.907 174.824 L
442.017 176.216 L
443.621 176.988 L
445.4 176.988 L
447.004 176.216 L
448.114 174.824 L
448.511 173.089 LE
486.896 177.512 LS
486.499 175.777 L
485.389 174.385 L
483.785 173.613 L
482.005 173.613 L
480.401 174.385 L
479.292 175.777 L
478.896 177.512 L
479.292 179.248 L
480.401 180.64 L
482.005 181.412 L
483.785 181.412 L
485.389 180.64 L
486.499 179.248 L
486.896 177.512 LE
525.28 186.27 LS
524.884 184.534 L
523.774 183.142 L
522.17 182.37 L
520.39 182.37 L
518.786 183.142 L
517.676 184.534 L
517.28 186.27 L
517.676 188.005 L
518.786 189.397 L
520.39 190.169 L
522.17 190.169 L
523.774 189.397 L
524.884 188.005 L
525.28 186.27 LE
grestore
grestore
showpage
cleartomark
%%PageTrailer
%%Trailer
end
%%EOF
